BPDatas/KFM_20230614.CSV

TIME,CH1,SBP,DBP,Model,TBS1102C
-3.2,-1.42,95,58,Firmware Version,v2015-08-04-prequal4ch70_v1.3
-3.197,-1.42,,,,
-3.194,-1.42,,,Point Format,Y
-3.19,-1.5,,,Horizontal Units,S
-3.187,-1.5,,,Horizontal Scale,0.4
-3.184,-1.54,,,Sample Interval,0.0032
-3.181,-1.54,,,Filter Frequency,2.00E+08
-3.178,-1.58,,,Record Length,2000
-3.174,-1.58,,,Gating,0.0% to 100.0%
-3.171,-1.62,,,Probe Attenuation,10
-3.168,-1.7,,,Vertical Units,V
-3.165,-1.66,,,Vertical Offset,0
-3.162,-1.7,,,Vertical Scale,1
-3.158,-1.74,,,Label,
-3.155,-1.74,,,,
-3.152,-1.78,,,,
-3.149,-1.82,,,,
-3.146,-1.82,,,,
-3.142,-1.82,,,,
-3.139,-1.86,,,,
-3.136,-1.9,,,,
-3.133,-1.9,,,,
-3.13,-1.94,,,,
-3.126,-1.94,,,,
-3.123,-1.98,,,,
-3.12,-1.98,,,,
-3.117,-1.98,,,,
-3.114,-2.06,,,,
-3.11,-2.06,,,,
-3.107,-2.02,,,,
-3.104,-2.06,,,,
-3.101,-2.06,,,,
-3.098,-2.1,,,,
-3.094,-2.1,,,,
-3.091,-2.1,,,,
-3.088,-2.1,,,,
-3.085,-2.14,,,,
-3.082,-2.18,,,,
-3.078,-2.22,,,,
-3.075,-2.22,,,,
-3.072,-2.26,,,,
-3.069,-2.26,,,,
-3.066,-2.3,,,,
-3.062,-2.3,,,,
-3.059,-2.34,,,,
-3.056,-2.38,,,,
-3.053,-2.34,,,,
-3.05,-2.38,,,,
-3.046,-2.38,,,,
-3.043,-2.42,,,,
-3.04,-2.42,,,,
-3.037,-2.42,,,,
-3.034,-2.46,,,,
-3.03,-2.38,,,,
-3.027,-2.34,,,,
-3.024,-2.26,,,,
-3.021,-2.22,,,,
-3.018,-2.14,,,,
-3.014,-2.06,,,,
-3.011,-1.9,,,,
-3.008,-1.78,,,,
-3.005,-1.66,,,,
-3.002,-1.42,,,,
-2.998,-1.26,,,,
-2.995,-1.1,,,,
-2.992,-0.9,,,,
-2.989,-0.7,,,,
-2.986,-0.46,,,,
-2.982,-0.26,,,,
-2.979,-0.02,,,,
-2.976,0.14,,,,
-2.973,0.3,,,,
-2.97,0.46,,,,
-2.966,0.62,,,,
-2.963,0.74,,,,
-2.96,0.86,,,,
-2.957,0.94,,,,
-2.954,1.02,,,,
-2.95,1.06,,,,
-2.947,1.1,,,,
-2.944,1.14,,,,
-2.941,1.14,,,,
-2.938,1.14,,,,
-2.934,1.1,,,,
-2.931,1.1,,,,
-2.928,1.02,,,,
-2.925,1.02,,,,
-2.922,0.94,,,,
-2.918,0.94,,,,
-2.915,0.86,,,,
-2.912,0.82,,,,
-2.909,0.78,,,,
-2.906,0.66,,,,
-2.902,0.62,,,,
-2.899,0.54,,,,
-2.896,0.46,,,,
-2.893,0.42,,,,
-2.89,0.3,,,,
-2.886,0.26,,,,
-2.883,0.22,,,,
-2.88,0.18,,,,
-2.877,0.14,,,,
-2.874,0.02,,,,
-2.87,-0.02,,,,
-2.867,-0.1,,,,
-2.864,-0.18,,,,
-2.861,-0.22,,,,
-2.858,-0.3,,,,
-2.854,-0.34,,,,
-2.851,-0.42,,,,
-2.848,-0.5,,,,
-2.845,-0.5,,,,
-2.842,-0.58,,,,
-2.838,-0.58,,,,
-2.835,-0.66,,,,
-2.832,-0.7,,,,
-2.829,-0.7,,,,
-2.826,-0.7,,,,
-2.822,-0.78,,,,
-2.819,-0.82,,,,
-2.816,-0.82,,,,
-2.813,-0.86,,,,
-2.81,-0.86,,,,
-2.806,-0.86,,,,
-2.803,-0.9,,,,
-2.8,-0.94,,,,
-2.797,-0.9,,,,
-2.794,-0.9,,,,
-2.79,-0.94,,,,
-2.787,-1.02,,,,
-2.784,-1.02,,,,
-2.781,-1.02,,,,
-2.778,-1.06,,,,
-2.774,-1.06,,,,
-2.771,-1.06,,,,
-2.768,-1.14,,,,
-2.765,-1.14,,,,
-2.762,-1.14,,,,
-2.758,-1.18,,,,
-2.755,-1.22,,,,
-2.752,-1.26,,,,
-2.749,-1.22,,,,
-2.746,-1.26,,,,
-2.742,-1.34,,,,
-2.739,-1.3,,,,
-2.736,-1.38,,,,
-2.733,-1.34,,,,
-2.73,-1.38,,,,
-2.726,-1.38,,,,
-2.723,-1.38,,,,
-2.72,-1.38,,,,
-2.717,-1.38,,,,
-2.714,-1.34,,,,
-2.71,-1.34,,,,
-2.707,-1.34,,,,
-2.704,-1.34,,,,
-2.701,-1.3,,,,
-2.698,-1.26,,,,
-2.694,-1.26,,,,
-2.691,-1.22,,,,
-2.688,-1.18,,,,
-2.685,-1.18,,,,
-2.682,-1.22,,,,
-2.678,-1.18,,,,
-2.675,-1.14,,,,
-2.672,-1.1,,,,
-2.669,-1.1,,,,
-2.666,-1.06,,,,
-2.662,-1.02,,,,
-2.659,-1.02,,,,
-2.656,-0.98,,,,
-2.653,-0.94,,,,
-2.65,-0.9,,,,
-2.646,-0.9,,,,
-2.643,-0.9,,,,
-2.64,-0.86,,,,
-2.637,-0.86,,,,
-2.634,-0.82,,,,
-2.63,-0.78,,,,
-2.627,-0.78,,,,
-2.624,-0.74,,,,
-2.621,-0.74,,,,
-2.618,-0.78,,,,
-2.614,-0.74,,,,
-2.611,-0.78,,,,
-2.608,-0.78,,,,
-2.605,-0.78,,,,
-2.602,-0.82,,,,
-2.598,-0.86,,,,
-2.595,-0.86,,,,
-2.592,-0.9,,,,
-2.589,-0.86,,,,
-2.586,-0.86,,,,
-2.582,-0.9,,,,
-2.579,-0.9,,,,
-2.576,-0.98,,,,
-2.573,-0.94,,,,
-2.57,-0.98,,,,
-2.566,-0.98,,,,
-2.563,-1.02,,,,
-2.56,-1.06,,,,
-2.557,-1.1,,,,
-2.554,-1.14,,,,
-2.55,-1.18,,,,
-2.547,-1.22,,,,
-2.544,-1.22,,,,
-2.541,-1.26,,,,
-2.538,-1.3,,,,
-2.534,-1.34,,,,
-2.531,-1.38,,,,
-2.528,-1.38,,,,
-2.525,-1.42,,,,
-2.522,-1.5,,,,
-2.518,-1.5,,,,
-2.515,-1.5,,,,
-2.512,-1.54,,,,
-2.509,-1.62,,,,
-2.506,-1.58,,,,
-2.502,-1.62,,,,
-2.499,-1.62,,,,
-2.496,-1.66,,,,
-2.493,-1.66,,,,
-2.49,-1.7,,,,
-2.486,-1.7,,,,
-2.483,-1.74,,,,
-2.48,-1.74,,,,
-2.477,-1.74,,,,
-2.474,-1.74,,,,
-2.47,-1.78,,,,
-2.467,-1.78,,,,
-2.464,-1.78,,,,
-2.461,-1.82,,,,
-2.458,-1.78,,,,
-2.454,-1.82,,,,
-2.451,-1.78,,,,
-2.448,-1.78,,,,
-2.445,-1.82,,,,
-2.442,-1.78,,,,
-2.438,-1.78,,,,
-2.435,-1.78,,,,
-2.432,-1.78,,,,
-2.429,-1.78,,,,
-2.426,-1.78,,,,
-2.422,-1.74,,,,
-2.419,-1.74,,,,
-2.416,-1.74,,,,
-2.413,-1.78,,,,
-2.41,-1.78,,,,
-2.406,-1.78,,,,
-2.403,-1.74,,,,
-2.4,-1.78,,,,
-2.397,-1.82,,,,
-2.394,-1.78,,,,
-2.39,-1.78,,,,
-2.387,-1.82,,,,
-2.384,-1.78,,,,
-2.381,-1.82,,,,
-2.378,-1.82,,,,
-2.374,-1.82,,,,
-2.371,-1.86,,,,
-2.368,-1.82,,,,
-2.365,-1.86,,,,
-2.362,-1.86,,,,
-2.358,-1.82,,,,
-2.355,-1.82,,,,
-2.352,-1.82,,,,
-2.349,-1.82,,,,
-2.346,-1.78,,,,
-2.342,-1.82,,,,
-2.339,-1.82,,,,
-2.336,-1.82,,,,
-2.333,-1.78,,,,
-2.33,-1.78,,,,
-2.326,-1.78,,,,
-2.323,-1.82,,,,
-2.32,-1.82,,,,
-2.317,-1.82,,,,
-2.314,-1.82,,,,
-2.31,-1.86,,,,
-2.307,-1.82,,,,
-2.304,-1.86,,,,
-2.301,-1.82,,,,
-2.298,-1.86,,,,
-2.294,-1.86,,,,
-2.291,-1.86,,,,
-2.288,-1.9,,,,
-2.285,-1.9,,,,
-2.282,-1.86,,,,
-2.278,-1.9,,,,
-2.275,-1.9,,,,
-2.272,-1.9,,,,
-2.269,-1.9,,,,
-2.266,-1.86,,,,
-2.262,-1.9,,,,
-2.259,-1.9,,,,
-2.256,-1.9,,,,
-2.253,-1.82,,,,
-2.25,-1.82,,,,
-2.246,-1.78,,,,
-2.243,-1.7,,,,
-2.24,-1.66,,,,
-2.237,-1.58,,,,
-2.234,-1.54,,,,
-2.23,-1.5,,,,
-2.227,-1.34,,,,
-2.224,-1.26,,,,
-2.221,-1.1,,,,
-2.218,-0.98,,,,
-2.214,-0.78,,,,
-2.211,-0.62,,,,
-2.208,-0.42,,,,
-2.205,-0.26,,,,
-2.202,-0.06,,,,
-2.198,0.1,,,,
-2.195,0.3,,,,
-2.192,0.46,,,,
-2.189,0.62,,,,
-2.186,0.78,,,,
-2.182,0.94,,,,
-2.179,1.1,,,,
-2.176,1.22,,,,
-2.173,1.3,,,,
-2.17,1.42,,,,
-2.166,1.5,,,,
-2.163,1.54,,,,
-2.16,1.62,,,,
-2.157,1.66,,,,
-2.154,1.66,,,,
-2.15,1.66,,,,
-2.147,1.66,,,,
-2.144,1.7,,,,
-2.141,1.66,,,,
-2.138,1.62,,,,
-2.134,1.58,,,,
-2.131,1.54,,,,
-2.128,1.5,,,,
-2.125,1.46,,,,
-2.122,1.34,,,,
-2.118,1.3,,,,
-2.115,1.26,,,,
-2.112,1.22,,,,
-2.109,1.14,,,,
-2.106,1.1,,,,
-2.102,1.02,,,,
-2.099,0.9,,,,
-2.096,0.9,,,,
-2.093,0.82,,,,
-2.09,0.74,,,,
-2.086,0.66,,,,
-2.083,0.58,,,,
-2.08,0.58,,,,
-2.077,0.5,,,,
-2.074,0.42,,,,
-2.07,0.38,,,,
-2.067,0.34,,,,
-2.064,0.3,,,,
-2.061,0.26,,,,
-2.058,0.22,,,,
-2.054,0.18,,,,
-2.051,0.18,,,,
-2.048,0.1,,,,
-2.045,0.1,,,,
-2.042,0.1,,,,
-2.038,0.06,,,,
-2.035,0.02,,,,
-2.032,0.02,,,,
-2.029,0.02,,,,
-2.026,-0.02,,,,
-2.022,-0.02,,,,
-2.019,-0.02,,,,
-2.016,-0.06,,,,
-2.013,-0.1,,,,
-2.01,-0.14,,,,
-2.006,-0.14,,,,
-2.003,-0.18,,,,
-2,-0.22,,,,
-1.997,-0.22,,,,
-1.994,-0.26,,,,
-1.99,-0.3,,,,
-1.987,-0.3,,,,
-1.984,-0.34,,,,
-1.981,-0.38,,,,
-1.978,-0.42,,,,
-1.974,-0.42,,,,
-1.971,-0.5,,,,
-1.968,-0.5,,,,
-1.965,-0.54,,,,
-1.962,-0.54,,,,
-1.958,-0.58,,,,
-1.955,-0.58,,,,
-1.952,-0.58,,,,
-1.949,-0.62,,,,
-1.946,-0.62,,,,
-1.942,-0.62,,,,
-1.939,-0.62,,,,
-1.936,-0.66,,,,
-1.933,-0.62,,,,
-1.93,-0.66,,,,
-1.926,-0.62,,,,
-1.923,-0.66,,,,
-1.92,-0.62,,,,
-1.917,-0.58,,,,
-1.914,-0.58,,,,
-1.91,-0.62,,,,
-1.907,-0.62,,,,
-1.904,-0.58,,,,
-1.901,-0.62,,,,
-1.898,-0.58,,,,
-1.894,-0.54,,,,
-1.891,-0.54,,,,
-1.888,-0.54,,,,
-1.885,-0.54,,,,
-1.882,-0.54,,,,
-1.878,-0.5,,,,
-1.875,-0.5,,,,
-1.872,-0.54,,,,
-1.869,-0.5,,,,
-1.866,-0.5,,,,
-1.862,-0.46,,,,
-1.859,-0.5,,,,
-1.856,-0.5,,,,
-1.853,-0.46,,,,
-1.85,-0.46,,,,
-1.846,-0.5,,,,
-1.843,-0.46,,,,
-1.84,-0.5,,,,
-1.837,-0.5,,,,
-1.834,-0.5,,,,
-1.83,-0.5,,,,
-1.827,-0.5,,,,
-1.824,-0.54,,,,
-1.821,-0.54,,,,
-1.818,-0.54,,,,
-1.814,-0.58,,,,
-1.811,-0.58,,,,
-1.808,-0.62,,,,
-1.805,-0.66,,,,
-1.802,-0.7,,,,
-1.798,-0.7,,,,
-1.795,-0.74,,,,
-1.792,-0.74,,,,
-1.789,-0.78,,,,
-1.786,-0.82,,,,
-1.782,-0.86,,,,
-1.779,-0.9,,,,
-1.776,-0.94,,,,
-1.773,-0.98,,,,
-1.77,-0.98,,,,
-1.766,-0.98,,,,
-1.763,-1.06,,,,
-1.76,-1.06,,,,
-1.757,-1.1,,,,
-1.754,-1.14,,,,
-1.75,-1.18,,,,
-1.747,-1.22,,,,
-1.744,-1.22,,,,
-1.741,-1.26,,,,
-1.738,-1.34,,,,
-1.734,-1.34,,,,
-1.731,-1.42,,,,
-1.728,-1.46,,,,
-1.725,-1.54,,,,
-1.722,-1.54,,,,
-1.718,-1.62,,,,
-1.715,-1.62,,,,
-1.712,-1.7,,,,
-1.709,-1.7,,,,
-1.706,-1.74,,,,
-1.702,-1.78,,,,
-1.699,-1.82,,,,
-1.696,-1.82,,,,
-1.693,-1.86,,,,
-1.69,-1.82,,,,
-1.686,-1.9,,,,
-1.683,-1.9,,,,
-1.68,-1.94,,,,
-1.677,-1.94,,,,
-1.674,-1.9,,,,
-1.67,-1.94,,,,
-1.667,-1.94,,,,
-1.664,-1.98,,,,
-1.661,-1.94,,,,
-1.658,-1.98,,,,
-1.654,-1.94,,,,
-1.651,-1.98,,,,
-1.648,-1.98,,,,
-1.645,-1.98,,,,
-1.642,-2.02,,,,
-1.638,-1.98,,,,
-1.635,-2.02,,,,
-1.632,-2.02,,,,
-1.629,-2.02,,,,
-1.626,-2.02,,,,
-1.622,-1.98,,,,
-1.619,-2.02,,,,
-1.616,-2.02,,,,
-1.613,-2.02,,,,
-1.61,-2.02,,,,
-1.606,-2.06,,,,
-1.603,-2.06,,,,
-1.6,-2.06,,,,
-1.597,-2.1,,,,
-1.594,-2.1,,,,
-1.59,-2.1,,,,
-1.587,-2.14,,,,
-1.584,-2.1,,,,
-1.581,-2.14,,,,
-1.578,-2.14,,,,
-1.574,-2.14,,,,
-1.571,-2.14,,,,
-1.568,-2.14,,,,
-1.565,-2.14,,,,
-1.562,-2.18,,,,
-1.558,-2.14,,,,
-1.555,-2.14,,,,
-1.552,-2.14,,,,
-1.549,-2.14,,,,
-1.546,-2.18,,,,
-1.542,-2.18,,,,
-1.539,-2.14,,,,
-1.536,-2.1,,,,
-1.533,-2.1,,,,
-1.53,-2.1,,,,
-1.526,-2.1,,,,
-1.523,-2.1,,,,
-1.52,-2.1,,,,
-1.517,-2.1,,,,
-1.514,-2.14,,,,
-1.51,-2.1,,,,
-1.507,-2.14,,,,
-1.504,-2.14,,,,
-1.501,-2.14,,,,
-1.498,-2.14,,,,
-1.494,-2.14,,,,
-1.491,-2.18,,,,
-1.488,-2.14,,,,
-1.485,-2.18,,,,
-1.482,-2.22,,,,
-1.478,-2.26,,,,
-1.475,-2.18,,,,
-1.472,-2.26,,,,
-1.469,-2.26,,,,
-1.466,-2.3,,,,
-1.462,-2.3,,,,
-1.459,-2.3,,,,
-1.456,-2.3,,,,
-1.453,-2.34,,,,
-1.45,-2.3,,,,
-1.446,-2.3,,,,
-1.443,-2.34,,,,
-1.44,-2.26,,,,
-1.437,-2.26,,,,
-1.434,-2.22,,,,
-1.43,-2.22,,,,
-1.427,-2.18,,,,
-1.424,-2.14,,,,
-1.421,-2.06,,,,
-1.418,-1.98,,,,
-1.414,-1.82,,,,
-1.411,-1.78,,,,
-1.408,-1.58,,,,
-1.405,-1.42,,,,
-1.402,-1.3,,,,
-1.398,-1.14,,,,
-1.395,-0.94,,,,
-1.392,-0.78,,,,
-1.389,-0.62,,,,
-1.386,-0.42,,,,
-1.382,-0.22,,,,
-1.379,-0.06,,,,
-1.376,0.14,,,,
-1.373,0.3,,,,
-1.37,0.5,,,,
-1.366,0.66,,,,
-1.363,0.86,,,,
-1.36,0.98,,,,
-1.357,1.14,,,,
-1.354,1.26,,,,
-1.35,1.34,,,,
-1.347,1.46,,,,
-1.344,1.5,,,,
-1.341,1.58,,,,
-1.338,1.62,,,,
-1.334,1.66,,,,
-1.331,1.66,,,,
-1.328,1.66,,,,
-1.325,1.66,,,,
-1.322,1.66,,,,
-1.318,1.66,,,,
-1.315,1.58,,,,
-1.312,1.54,,,,
-1.309,1.5,,,,
-1.306,1.46,,,,
-1.302,1.38,,,,
-1.299,1.34,,,,
-1.296,1.26,,,,
-1.293,1.14,,,,
-1.29,1.1,,,,
-1.286,1.02,,,,
-1.283,0.98,,,,
-1.28,0.9,,,,
-1.277,0.82,,,,
-1.274,0.74,,,,
-1.27,0.7,,,,
-1.267,0.62,,,,
-1.264,0.58,,,,
-1.261,0.54,,,,
-1.258,0.46,,,,
-1.254,0.42,,,,
-1.251,0.34,,,,
-1.248,0.3,,,,
-1.245,0.3,,,,
-1.242,0.22,,,,
-1.238,0.18,,,,
-1.235,0.1,,,,
-1.232,0.1,,,,
-1.229,0.02,,,,
-1.226,0.02,,,,
-1.222,-0.02,,,,
-1.219,-0.06,,,,
-1.216,-0.06,,,,
-1.213,-0.1,,,,
-1.21,-0.14,,,,
-1.206,-0.18,,,,
-1.203,-0.18,,,,
-1.2,-0.18,,,,
-1.197,-0.22,,,,
-1.194,-0.22,,,,
-1.19,-0.22,,,,
-1.187,-0.26,,,,
-1.184,-0.26,,,,
-1.181,-0.26,,,,
-1.178,-0.3,,,,
-1.174,-0.38,,,,
-1.171,-0.42,,,,
-1.168,-0.42,,,,
-1.165,-0.46,,,,
-1.162,-0.46,,,,
-1.158,-0.5,,,,
-1.155,-0.58,,,,
-1.152,-0.58,,,,
-1.149,-0.62,,,,
-1.146,-0.66,,,,
-1.142,-0.66,,,,
-1.139,-0.7,,,,
-1.136,-0.7,,,,
-1.133,-0.7,,,,
-1.13,-0.78,,,,
-1.126,-0.78,,,,
-1.123,-0.78,,,,
-1.12,-0.82,,,,
-1.117,-0.78,,,,
-1.114,-0.78,,,,
-1.11,-0.82,,,,
-1.107,-0.78,,,,
-1.104,-0.82,,,,
-1.101,-0.82,,,,
-1.098,-0.82,,,,
-1.094,-0.78,,,,
-1.091,-0.74,,,,
-1.088,-0.78,,,,
-1.085,-0.7,,,,
-1.082,-0.7,,,,
-1.078,-0.66,,,,
-1.075,-0.62,,,,
-1.072,-0.62,,,,
-1.069,-0.62,,,,
-1.066,-0.62,,,,
-1.062,-0.58,,,,
-1.059,-0.54,,,,
-1.056,-0.5,,,,
-1.053,-0.5,,,,
-1.05,-0.46,,,,
-1.046,-0.46,,,,
-1.043,-0.46,,,,
-1.04,-0.42,,,,
-1.037,-0.42,,,,
-1.034,-0.42,,,,
-1.03,-0.42,,,,
-1.027,-0.42,,,,
-1.024,-0.46,,,,
-1.021,-0.46,,,,
-1.018,-0.46,,,,
-1.014,-0.46,,,,
-1.011,-0.5,,,,
-1.008,-0.5,,,,
-1.005,-0.54,,,,
-1.002,-0.5,,,,
-0.9984,-0.58,,,,
-0.9952,-0.58,,,,
-0.992,-0.62,,,,
-0.9888,-0.66,,,,
-0.9856,-0.66,,,,
-0.9824,-0.7,,,,
-0.9792,-0.7,,,,
-0.976,-0.78,,,,
-0.9728,-0.82,,,,
-0.9696,-0.82,,,,
-0.9664,-0.86,,,,
-0.9632,-0.9,,,,
-0.96,-0.94,,,,
-0.9568,-0.94,,,,
-0.9536,-0.98,,,,
-0.9504,-1.02,,,,
-0.9472,-1.06,,,,
-0.944,-1.1,,,,
-0.9408,-1.14,,,,
-0.9376,-1.18,,,,
-0.9344,-1.22,,,,
-0.9312,-1.26,,,,
-0.928,-1.3,,,,
-0.9248,-1.34,,,,
-0.9216,-1.34,,,,
-0.9184,-1.42,,,,
-0.9152,-1.42,,,,
-0.912,-1.46,,,,
-0.9088,-1.46,,,,
-0.9056,-1.5,,,,
-0.9024,-1.54,,,,
-0.8992,-1.58,,,,
-0.896,-1.58,,,,
-0.8928,-1.66,,,,
-0.8896,-1.7,,,,
-0.8864,-1.7,,,,
-0.8832,-1.7,,,,
-0.88,-1.78,,,,
-0.8768,-1.78,,,,
-0.8736,-1.82,,,,
-0.8704,-1.82,,,,
-0.8672,-1.86,,,,
-0.864,-1.82,,,,
-0.8608,-1.9,,,,
-0.8576,-1.9,,,,
-0.8544,-1.9,,,,
-0.8512,-1.9,,,,
-0.848,-1.9,,,,
-0.8448,-1.94,,,,
-0.8416,-1.94,,,,
-0.8384,-1.94,,,,
-0.8352,-1.94,,,,
-0.832,-1.94,,,,
-0.8288,-1.98,,,,
-0.8256,-1.98,,,,
-0.8224,-1.98,,,,
-0.8192,-1.98,,,,
-0.816,-1.98,,,,
-0.8128,-2.02,,,,
-0.8096,-2.02,,,,
-0.8064,-2.02,,,,
-0.8032,-2.06,,,,
-0.8,-2.06,,,,
-0.7968,-2.1,,,,
-0.7936,-2.06,,,,
-0.7904,-2.06,,,,
-0.7872,-2.06,,,,
-0.784,-2.06,,,,
-0.7808,-2.1,,,,
-0.7776,-2.1,,,,
-0.7744,-2.06,,,,
-0.7712,-2.06,,,,
-0.768,-2.06,,,,
-0.7648,-2.02,,,,
-0.7616,-2.06,,,,
-0.7584,-2.02,,,,
-0.7552,-2.06,,,,
-0.752,-2.06,,,,
-0.7488,-2.1,,,,
-0.7456,-2.02,,,,
-0.7424,-2.02,,,,
-0.7392,-2.06,,,,
-0.736,-2.02,,,,
-0.7328,-2.02,,,,
-0.7296,-2.06,,,,
-0.7264,-2.06,,,,
-0.7232,-2.06,,,,
-0.72,-2.1,,,,
-0.7168,-2.1,,,,
-0.7136,-2.06,,,,
-0.7104,-2.06,,,,
-0.7072,-2.1,,,,
-0.704,-2.14,,,,
-0.7008,-2.1,,,,
-0.6976,-2.1,,,,
-0.6944,-2.1,,,,
-0.6912,-2.1,,,,
-0.688,-2.1,,,,
-0.6848,-2.1,,,,
-0.6816,-2.1,,,,
-0.6784,-2.06,,,,
-0.6752,-2.1,,,,
-0.672,-2.06,,,,
-0.6688,-2.06,,,,
-0.6656,-2.06,,,,
-0.6624,-2.06,,,,
-0.6592,-2.06,,,,
-0.656,-2.06,,,,
-0.6528,-2.02,,,,
-0.6496,-2.06,,,,
-0.6464,-2.06,,,,
-0.6432,-2.02,,,,
-0.64,-2.06,,,,
-0.6368,-2.06,,,,
-0.6336,-2.06,,,,
-0.6304,-2.06,,,,
-0.6272,-2.02,,,,
-0.624,-2.06,,,,
-0.6208,-2.02,,,,
-0.6176,-2.06,,,,
-0.6144,-2.02,,,,
-0.6112,-2.02,,,,
-0.608,-2.06,,,,
-0.6048,-2.02,,,,
-0.6016,-1.98,,,,
-0.5984,-1.9,,,,
-0.5952,-1.86,,,,
-0.592,-1.78,,,,
-0.5888,-1.7,,,,
-0.5856,-1.58,,,,
-0.5824,-1.46,,,,
-0.5792,-1.3,,,,
-0.576,-1.14,,,,
-0.5728,-0.98,,,,
-0.5696,-0.82,,,,
-0.5664,-0.66,,,,
-0.5632,-0.5,,,,
-0.56,-0.26,,,,
-0.5568,-0.1,,,,
-0.5536,0.06,,,,
-0.5504,0.22,,,,
-0.5472,0.42,,,,
-0.544,0.62,,,,
-0.5408,0.78,,,,
-0.5376,0.94,,,,
-0.5344,1.06,,,,
-0.5312,1.22,,,,
-0.528,1.34,,,,
-0.5248,1.46,,,,
-0.5216,1.54,,,,
-0.5184,1.58,,,,
-0.5152,1.66,,,,
-0.512,1.7,,,,
-0.5088,1.74,,,,
-0.5056,1.74,,,,
-0.5024,1.78,,,,
-0.4992,1.7,,,,
-0.496,1.7,,,,
-0.4928,1.66,,,,
-0.4896,1.62,,,,
-0.4864,1.54,,,,
-0.4832,1.5,,,,
-0.48,1.46,,,,
-0.4768,1.38,,,,
-0.4736,1.34,,,,
-0.4704,1.3,,,,
-0.4672,1.22,,,,
-0.464,1.14,,,,
-0.4608,1.06,,,,
-0.4576,0.98,,,,
-0.4544,0.94,,,,
-0.4512,0.9,,,,
-0.448,0.78,,,,
-0.4448,0.74,,,,
-0.4416,0.7,,,,
-0.4384,0.58,,,,
-0.4352,0.54,,,,
-0.432,0.5,,,,
-0.4288,0.42,,,,
-0.4256,0.38,,,,
-0.4224,0.34,,,,
-0.4192,0.22,,,,
-0.416,0.22,,,,
-0.4128,0.18,,,,
-0.4096,0.1,,,,
-0.4064,0.1,,,,
-0.4032,0.02,,,,
-0.4,0.02,,,,
-0.3968,-0.02,,,,
-0.3936,-0.06,,,,
-0.3904,-0.06,,,,
-0.3872,-0.1,,,,
-0.384,-0.14,,,,
-0.3808,-0.18,,,,
-0.3776,-0.22,,,,
-0.3744,-0.22,,,,
-0.3712,-0.26,,,,
-0.368,-0.3,,,,
-0.3648,-0.34,,,,
-0.3616,-0.38,,,,
-0.3584,-0.42,,,,
-0.3552,-0.5,,,,
-0.352,-0.5,,,,
-0.3488,-0.54,,,,
-0.3456,-0.58,,,,
-0.3424,-0.58,,,,
-0.3392,-0.66,,,,
-0.336,-0.7,,,,
-0.3328,-0.7,,,,
-0.3296,-0.74,,,,
-0.3264,-0.78,,,,
-0.3232,-0.82,,,,
-0.32,-0.82,,,,
-0.3168,-0.86,,,,
-0.3136,-0.9,,,,
-0.3104,-0.9,,,,
-0.3072,-0.94,,,,
-0.304,-0.98,,,,
-0.3008,-0.98,,,,
-0.2976,-0.98,,,,
-0.2944,-1.02,,,,
-0.2912,-0.98,,,,
-0.288,-1.06,,,,
-0.2848,-1.02,,,,
-0.2816,-1.06,,,,
-0.2784,-1.06,,,,
-0.2752,-1.06,,,,
-0.272,-1.06,,,,
-0.2688,-1.02,,,,
-0.2656,-1.02,,,,
-0.2624,-0.98,,,,
-0.2592,-1.02,,,,
-0.256,-0.98,,,,
-0.2528,-0.98,,,,
-0.2496,-0.98,,,,
-0.2464,-0.98,,,,
-0.2432,-0.94,,,,
-0.24,-0.9,,,,
-0.2368,-0.94,,,,
-0.2336,-0.9,,,,
-0.2304,-0.86,,,,
-0.2272,-0.86,,,,
-0.224,-0.86,,,,
-0.2208,-0.82,,,,
-0.2176,-0.78,,,,
-0.2144,-0.78,,,,
-0.2112,-0.78,,,,
-0.208,-0.74,,,,
-0.2048,-0.74,,,,
-0.2016,-0.7,,,,
-0.1984,-0.74,,,,
-0.1952,-0.7,,,,
-0.192,-0.7,,,,
-0.1888,-0.7,,,,
-0.1856,-0.7,,,,
-0.1824,-0.7,,,,
-0.1792,-0.74,,,,
-0.176,-0.74,,,,
-0.1728,-0.78,,,,
-0.1696,-0.78,,,,
-0.1664,-0.82,,,,
-0.1632,-0.86,,,,
-0.16,-0.9,,,,
-0.1568,-0.9,,,,
-0.1536,-0.94,,,,
-0.1504,-1.02,,,,
-0.1472,-1.06,,,,
-0.144,-1.06,,,,
-0.1408,-1.14,,,,
-0.1376,-1.14,,,,
-0.1344,-1.22,,,,
-0.1312,-1.26,,,,
-0.128,-1.26,,,,
-0.1248,-1.3,,,,
-0.1216,-1.34,,,,
-0.1184,-1.34,,,,
-0.1152,-1.38,,,,
-0.112,-1.42,,,,
-0.1088,-1.46,,,,
-0.1056,-1.46,,,,
-0.1024,-1.5,,,,
-0.0992,-1.5,,,,
-0.096,-1.54,,,,
-0.0928,-1.54,,,,
-0.0896,-1.58,,,,
-0.0864,-1.58,,,,
-0.0832,-1.58,,,,
-0.08,-1.66,,,,
-0.0768,-1.66,,,,
-0.0736,-1.66,,,,
-0.0704,-1.66,,,,
-0.0672,-1.7,,,,
-0.064,-1.74,,,,
-0.0608,-1.78,,,,
-0.0576,-1.78,,,,
-0.0544,-1.78,,,,
-0.0512,-1.86,,,,
-0.048,-1.86,,,,
-0.0448,-1.9,,,,
-0.0416,-1.9,,,,
-0.0384,-1.94,,,,
-0.0352,-1.94,,,,
-0.032,-1.9,,,,
-0.0288,-1.98,,,,
-0.0256,-1.94,,,,
-0.0224,-1.98,,,,
-0.0192,-2.02,,,,
-0.016,-1.98,,,,
-0.0128,-2.06,,,,
-0.0096,-2.06,,,,
-0.0064,-2.06,,,,
-0.0032,-2.1,,,,
0,-2.14,,,,
0.0032,-2.18,,,,
0.0064,-2.14,,,,
0.0096,-2.18,,,,
0.0128,-2.22,,,,
0.016,-2.22,,,,
0.0192,-2.26,,,,
0.0224,-2.26,,,,
0.0256,-2.22,,,,
0.0288,-2.26,,,,
0.032,-2.26,,,,
0.0352,-2.3,,,,
0.0384,-2.3,,,,
0.0416,-2.3,,,,
0.0448,-2.34,,,,
0.048,-2.3,,,,
0.0512,-2.34,,,,
0.0544,-2.3,,,,
0.0576,-2.38,,,,
0.0608,-2.34,,,,
0.064,-2.3,,,,
0.0672,-2.34,,,,
0.0704,-2.34,,,,
0.0736,-2.34,,,,
0.0768,-2.34,,,,
0.08,-2.34,,,,
0.0832,-2.34,,,,
0.0864,-2.34,,,,
0.0896,-2.3,,,,
0.0928,-2.3,,,,
0.096,-2.3,,,,
0.0992,-2.3,,,,
0.1024,-2.26,,,,
0.1056,-2.26,,,,
0.1088,-2.26,,,,
0.112,-2.26,,,,
0.1152,-2.22,,,,
0.1184,-2.22,,,,
0.1216,-2.22,,,,
0.1248,-2.18,,,,
0.128,-2.18,,,,
0.1312,-2.18,,,,
0.1344,-2.14,,,,
0.1376,-2.14,,,,
0.1408,-2.22,,,,
0.144,-2.14,,,,
0.1472,-2.14,,,,
0.1504,-2.14,,,,
0.1536,-2.1,,,,
0.1568,-2.14,,,,
0.16,-2.06,,,,
0.1632,-2.06,,,,
0.1664,-2.06,,,,
0.1696,-2.06,,,,
0.1728,-1.98,,,,
0.176,-1.98,,,,
0.1792,-1.98,,,,
0.1824,-1.98,,,,
0.1856,-1.94,,,,
0.1888,-1.94,,,,
0.192,-1.9,,,,
0.1952,-1.9,,,,
0.1984,-1.9,,,,
0.2016,-1.9,,,,
0.2048,-1.86,,,,
0.208,-1.86,,,,
0.2112,-1.86,,,,
0.2144,-1.82,,,,
0.2176,-1.82,,,,
0.2208,-1.78,,,,
0.224,-1.66,,,,
0.2272,-1.62,,,,
0.2304,-1.54,,,,
0.2336,-1.46,,,,
0.2368,-1.3,,,,
0.24,-1.18,,,,
0.2432,-1.02,,,,
0.2464,-0.86,,,,
0.2496,-0.7,,,,
0.2528,-0.5,,,,
0.256,-0.34,,,,
0.2592,-0.18,,,,
0.2624,-0.06,,,,
0.2656,0.14,,,,
0.2688,0.3,,,,
0.272,0.46,,,,
0.2752,0.62,,,,
0.2784,0.74,,,,
0.2816,0.9,,,,
0.2848,1.02,,,,
0.288,1.14,,,,
0.2912,1.26,,,,
0.2944,1.34,,,,
0.2976,1.46,,,,
0.3008,1.54,,,,
0.304,1.62,,,,
0.3072,1.66,,,,
0.3104,1.74,,,,
0.3136,1.74,,,,
0.3168,1.78,,,,
0.32,1.82,,,,
0.3232,1.82,,,,
0.3264,1.82,,,,
0.3296,1.78,,,,
0.3328,1.74,,,,
0.336,1.7,,,,
0.3392,1.66,,,,
0.3424,1.62,,,,
0.3456,1.54,,,,
0.3488,1.46,,,,
0.352,1.42,,,,
0.3552,1.34,,,,
0.3584,1.3,,,,
0.3616,1.18,,,,
0.3648,1.1,,,,
0.368,1.02,,,,
0.3712,0.98,,,,
0.3744,0.9,,,,
0.3776,0.82,,,,
0.3808,0.7,,,,
0.384,0.62,,,,
0.3872,0.54,,,,
0.3904,0.5,,,,
0.3936,0.42,,,,
0.3968,0.3,,,,
0.4,0.26,,,,
0.4032,0.22,,,,
0.4064,0.18,,,,
0.4096,0.1,,,,
0.4128,0.06,,,,
0.416,0.02,,,,
0.4192,-0.02,,,,
0.4224,-0.1,,,,
0.4256,-0.1,,,,
0.4288,-0.18,,,,
0.432,-0.14,,,,
0.4352,-0.22,,,,
0.4384,-0.22,,,,
0.4416,-0.22,,,,
0.4448,-0.22,,,,
0.448,-0.26,,,,
0.4512,-0.26,,,,
0.4544,-0.3,,,,
0.4576,-0.34,,,,
0.4608,-0.34,,,,
0.464,-0.34,,,,
0.4672,-0.42,,,,
0.4704,-0.38,,,,
0.4736,-0.42,,,,
0.4768,-0.46,,,,
0.48,-0.5,,,,
0.4832,-0.54,,,,
0.4864,-0.58,,,,
0.4896,-0.58,,,,
0.4928,-0.58,,,,
0.496,-0.62,,,,
0.4992,-0.66,,,,
0.5024,-0.66,,,,
0.5056,-0.66,,,,
0.5088,-0.7,,,,
0.512,-0.74,,,,
0.5152,-0.78,,,,
0.5184,-0.74,,,,
0.5216,-0.78,,,,
0.5248,-0.74,,,,
0.528,-0.74,,,,
0.5312,-0.78,,,,
0.5344,-0.74,,,,
0.5376,-0.74,,,,
0.5408,-0.74,,,,
0.544,-0.74,,,,
0.5472,-0.7,,,,
0.5504,-0.74,,,,
0.5536,-0.7,,,,
0.5568,-0.66,,,,
0.56,-0.62,,,,
0.5632,-0.62,,,,
0.5664,-0.58,,,,
0.5696,-0.54,,,,
0.5728,-0.5,,,,
0.576,-0.46,,,,
0.5792,-0.42,,,,
