BPDatas/R_20230510_1451.CSV

TIME,CH1,SBP,DBP,Model,TBS1102C
-3.20000 ,0.78000 ,121,78,Firmware Version,v2015-08-04-prequal4ch70_v1.3
-3.19700 ,0.94000 ,,,,
-3.19400 ,1.10000 ,,,Point Format,Y
-3.19000 ,1.30000 ,,,Horizontal Units,S
-3.18700 ,1.46000 ,,,Horizontal Scale,0.4
-3.18400 ,1.62000 ,,,Sample Interval,0.0032
-3.18100 ,1.74000 ,,,Filter Frequency,2.00E+08
-3.17800 ,1.90000 ,,,Record Length,2000
-3.17400 ,2.02000 ,,,Gating,0.0% to 100.0%
-3.17100 ,2.14000 ,,,Probe Attenuation,10
-3.16800 ,2.26000 ,,,Vertical Units,V
-3.16500 ,2.34000 ,,,Vertical Offset,0
-3.16200 ,2.42000 ,,,Vertical Scale,1
-3.15800 ,2.50000 ,,,Label,
-3.15500 ,2.54000 ,,,,
-3.15200 ,2.58000 ,,,,
-3.14900 ,2.62000 ,,,,
-3.14600 ,2.70000 ,,,,
-3.14200 ,2.70000 ,,,,
-3.13900 ,2.74000 ,,,,
-3.13600 ,2.74000 ,,,,
-3.13300 ,2.74000 ,,,,
-3.13000 ,2.78000 ,,,,
-3.12600 ,2.78000 ,,,,
-3.12300 ,2.78000 ,,,,
-3.12000 ,2.74000 ,,,,
-3.11700 ,2.74000 ,,,,
-3.11400 ,2.70000 ,,,,
-3.11000 ,2.66000 ,,,,
-3.10700 ,2.66000 ,,,,
-3.10400 ,2.66000 ,,,,
-3.10100 ,2.66000 ,,,,
-3.09800 ,2.62000 ,,,,
-3.09400 ,2.62000 ,,,,
-3.09100 ,2.62000 ,,,,
-3.08800 ,2.58000 ,,,,
-3.08500 ,2.50000 ,,,,
-3.08200 ,2.50000 ,,,,
-3.07800 ,2.46000 ,,,,
-3.07500 ,2.46000 ,,,,
-3.07200 ,2.42000 ,,,,
-3.06900 ,2.38000 ,,,,
-3.06600 ,2.34000 ,,,,
-3.06200 ,2.30000 ,,,,
-3.05900 ,2.30000 ,,,,
-3.05600 ,2.26000 ,,,,
-3.05300 ,2.22000 ,,,,
-3.05000 ,2.18000 ,,,,
-3.04600 ,2.10000 ,,,,
-3.04300 ,2.06000 ,,,,
-3.04000 ,2.02000 ,,,,
-3.03700 ,1.98000 ,,,,
-3.03400 ,1.94000 ,,,,
-3.03000 ,1.90000 ,,,,
-3.02700 ,1.86000 ,,,,
-3.02400 ,1.82000 ,,,,
-3.02100 ,1.74000 ,,,,
-3.01800 ,1.70000 ,,,,
-3.01400 ,1.66000 ,,,,
-3.01100 ,1.58000 ,,,,
-3.00800 ,1.50000 ,,,,
-3.00500 ,1.50000 ,,,,
-3.00200 ,1.42000 ,,,,
-2.99800 ,1.34000 ,,,,
-2.99500 ,1.26000 ,,,,
-2.99200 ,1.22000 ,,,,
-2.98900 ,1.18000 ,,,,
-2.98600 ,1.06000 ,,,,
-2.98200 ,0.98000 ,,,,
-2.97900 ,0.94000 ,,,,
-2.97600 ,0.86000 ,,,,
-2.97300 ,0.78000 ,,,,
-2.97000 ,0.74000 ,,,,
-2.96600 ,0.66000 ,,,,
-2.96300 ,0.58000 ,,,,
-2.96000 ,0.54000 ,,,,
-2.95700 ,0.46000 ,,,,
-2.95400 ,0.42000 ,,,,
-2.95000 ,0.38000 ,,,,
-2.94700 ,0.30000 ,,,,
-2.94400 ,0.26000 ,,,,
-2.94100 ,0.22000 ,,,,
-2.93800 ,0.22000 ,,,,
-2.93400 ,0.18000 ,,,,
-2.93100 ,0.14000 ,,,,
-2.92800 ,0.14000 ,,,,
-2.92500 ,0.10000 ,,,,
-2.92200 ,0.02000 ,,,,
-2.91800 ,0.06000 ,,,,
-2.91500 ,0.02000 ,,,,
-2.91200 ,0.02000 ,,,,
-2.90900 ,-0.02000 ,,,,
-2.90600 ,-0.02000 ,,,,
-2.90200 ,-0.02000 ,,,,
-2.89900 ,-0.06000 ,,,,
-2.89600 ,-0.06000 ,,,,
-2.89300 ,-0.06000 ,,,,
-2.89000 ,-0.10000 ,,,,
-2.88600 ,-0.06000 ,,,,
-2.88300 ,-0.06000 ,,,,
-2.88000 ,-0.10000 ,,,,
-2.87700 ,-0.10000 ,,,,
-2.87400 ,-0.10000 ,,,,
-2.87000 ,-0.10000 ,,,,
-2.86700 ,-0.10000 ,,,,
-2.86400 ,-0.10000 ,,,,
-2.86100 ,-0.10000 ,,,,
-2.85800 ,-0.10000 ,,,,
-2.85400 ,-0.10000 ,,,,
-2.85100 ,-0.10000 ,,,,
-2.84800 ,-0.10000 ,,,,
-2.84500 ,-0.14000 ,,,,
-2.84200 ,-0.14000 ,,,,
-2.83800 ,-0.14000 ,,,,
-2.83500 ,-0.14000 ,,,,
-2.83200 ,-0.18000 ,,,,
-2.82900 ,-0.22000 ,,,,
-2.82600 ,-0.22000 ,,,,
-2.82200 ,-0.26000 ,,,,
-2.81900 ,-0.26000 ,,,,
-2.81600 ,-0.26000 ,,,,
-2.81300 ,-0.30000 ,,,,
-2.81000 ,-0.30000 ,,,,
-2.80600 ,-0.34000 ,,,,
-2.80300 ,-0.30000 ,,,,
-2.80000 ,-0.34000 ,,,,
-2.79700 ,-0.38000 ,,,,
-2.79400 ,-0.42000 ,,,,
-2.79000 ,-0.38000 ,,,,
-2.78700 ,-0.42000 ,,,,
-2.78400 ,-0.42000 ,,,,
-2.78100 ,-0.46000 ,,,,
-2.77800 ,-0.50000 ,,,,
-2.77400 ,-0.50000 ,,,,
-2.77100 ,-0.50000 ,,,,
-2.76800 ,-0.54000 ,,,,
-2.76500 ,-0.54000 ,,,,
-2.76200 ,-0.58000 ,,,,
-2.75800 ,-0.58000 ,,,,
-2.75500 ,-0.58000 ,,,,
-2.75200 ,-0.62000 ,,,,
-2.74900 ,-0.62000 ,,,,
-2.74600 ,-0.66000 ,,,,
-2.74200 ,-0.66000 ,,,,
-2.73900 ,-0.70000 ,,,,
-2.73600 ,-0.70000 ,,,,
-2.73300 ,-0.78000 ,,,,
-2.73000 ,-0.78000 ,,,,
-2.72600 ,-0.78000 ,,,,
-2.72300 ,-0.82000 ,,,,
-2.72000 ,-0.82000 ,,,,
-2.71700 ,-0.82000 ,,,,
-2.71400 ,-0.86000 ,,,,
-2.71000 ,-0.82000 ,,,,
-2.70700 ,-0.90000 ,,,,
-2.70400 ,-0.86000 ,,,,
-2.70100 ,-0.86000 ,,,,
-2.69800 ,-0.90000 ,,,,
-2.69400 ,-0.90000 ,,,,
-2.69100 ,-0.90000 ,,,,
-2.68800 ,-0.94000 ,,,,
-2.68500 ,-0.94000 ,,,,
-2.68200 ,-0.98000 ,,,,
-2.67800 ,-0.98000 ,,,,
-2.67500 ,-0.98000 ,,,,
-2.67200 ,-0.98000 ,,,,
-2.66900 ,-0.98000 ,,,,
-2.66600 ,-1.02000 ,,,,
-2.66200 ,-1.06000 ,,,,
-2.65900 ,-1.06000 ,,,,
-2.65600 ,-1.06000 ,,,,
-2.65300 ,-1.02000 ,,,,
-2.65000 ,-1.06000 ,,,,
-2.64600 ,-1.06000 ,,,,
-2.64300 ,-1.06000 ,,,,
-2.64000 ,-1.10000 ,,,,
-2.63700 ,-1.10000 ,,,,
-2.63400 ,-1.10000 ,,,,
-2.63000 ,-1.10000 ,,,,
-2.62700 ,-1.10000 ,,,,
-2.62400 ,-1.10000 ,,,,
-2.62100 ,-1.10000 ,,,,
-2.61800 ,-1.10000 ,,,,
-2.61400 ,-1.10000 ,,,,
-2.61100 ,-1.14000 ,,,,
-2.60800 ,-1.14000 ,,,,
-2.60500 ,-1.14000 ,,,,
-2.60200 ,-1.18000 ,,,,
-2.59800 ,-1.18000 ,,,,
-2.59500 ,-1.18000 ,,,,
-2.59200 ,-1.18000 ,,,,
-2.58900 ,-1.22000 ,,,,
-2.58600 ,-1.22000 ,,,,
-2.58200 ,-1.22000 ,,,,
-2.57900 ,-1.22000 ,,,,
-2.57600 ,-1.26000 ,,,,
-2.57300 ,-1.26000 ,,,,
-2.57000 ,-1.26000 ,,,,
-2.56600 ,-1.30000 ,,,,
-2.56300 ,-1.30000 ,,,,
-2.56000 ,-1.30000 ,,,,
-2.55700 ,-1.30000 ,,,,
-2.55400 ,-1.30000 ,,,,
-2.55000 ,-1.26000 ,,,,
-2.54700 ,-1.26000 ,,,,
-2.54400 ,-1.26000 ,,,,
-2.54100 ,-1.22000 ,,,,
-2.53800 ,-1.18000 ,,,,
-2.53400 ,-1.10000 ,,,,
-2.53100 ,-1.06000 ,,,,
-2.52800 ,-0.98000 ,,,,
-2.52500 ,-0.90000 ,,,,
-2.52200 ,-0.78000 ,,,,
-2.51800 ,-0.74000 ,,,,
-2.51500 ,-0.58000 ,,,,
-2.51200 ,-0.42000 ,,,,
-2.50900 ,-0.30000 ,,,,
-2.50600 ,-0.14000 ,,,,
-2.50200 ,0.02000 ,,,,
-2.49900 ,0.18000 ,,,,
-2.49600 ,0.34000 ,,,,
-2.49300 ,0.50000 ,,,,
-2.49000 ,0.70000 ,,,,
-2.48600 ,0.86000 ,,,,
-2.48300 ,1.02000 ,,,,
-2.48000 ,1.22000 ,,,,
-2.47700 ,1.34000 ,,,,
-2.47400 ,1.54000 ,,,,
-2.47000 ,1.70000 ,,,,
-2.46700 ,1.82000 ,,,,
-2.46400 ,1.94000 ,,,,
-2.46100 ,2.10000 ,,,,
-2.45800 ,2.18000 ,,,,
-2.45400 ,2.30000 ,,,,
-2.45100 ,2.38000 ,,,,
-2.44800 ,2.46000 ,,,,
-2.44500 ,2.54000 ,,,,
-2.44200 ,2.58000 ,,,,
-2.43800 ,2.66000 ,,,,
-2.43500 ,2.66000 ,,,,
-2.43200 ,2.70000 ,,,,
-2.42900 ,2.74000 ,,,,
-2.42600 ,2.74000 ,,,,
-2.42200 ,2.78000 ,,,,
-2.41900 ,2.74000 ,,,,
-2.41600 ,2.78000 ,,,,
-2.41300 ,2.74000 ,,,,
-2.41000 ,2.78000 ,,,,
-2.40600 ,2.74000 ,,,,
-2.40300 ,2.74000 ,,,,
-2.40000 ,2.70000 ,,,,
-2.39700 ,2.70000 ,,,,
-2.39400 ,2.70000 ,,,,
-2.39000 ,2.70000 ,,,,
-2.38700 ,2.66000 ,,,,
-2.38400 ,2.62000 ,,,,
-2.38100 ,2.62000 ,,,,
-2.37800 ,2.58000 ,,,,
-2.37400 ,2.58000 ,,,,
-2.37100 ,2.54000 ,,,,
-2.36800 ,2.50000 ,,,,
-2.36500 ,2.50000 ,,,,
-2.36200 ,2.46000 ,,,,
-2.35800 ,2.46000 ,,,,
-2.35500 ,2.42000 ,,,,
-2.35200 ,2.38000 ,,,,
-2.34900 ,2.34000 ,,,,
-2.34600 ,2.34000 ,,,,
-2.34200 ,2.30000 ,,,,
-2.33900 ,2.22000 ,,,,
-2.33600 ,2.22000 ,,,,
-2.33300 ,2.14000 ,,,,
-2.33000 ,2.14000 ,,,,
-2.32600 ,2.06000 ,,,,
-2.32300 ,1.98000 ,,,,
-2.32000 ,1.98000 ,,,,
-2.31700 ,1.90000 ,,,,
-2.31400 ,1.82000 ,,,,
-2.31000 ,1.78000 ,,,,
-2.30700 ,1.74000 ,,,,
-2.30400 ,1.66000 ,,,,
-2.30100 ,1.58000 ,,,,
-2.29800 ,1.54000 ,,,,
-2.29400 ,1.46000 ,,,,
-2.29100 ,1.38000 ,,,,
-2.28800 ,1.30000 ,,,,
-2.28500 ,1.26000 ,,,,
-2.28200 ,1.14000 ,,,,
-2.27800 ,1.06000 ,,,,
-2.27500 ,1.02000 ,,,,
-2.27200 ,0.94000 ,,,,
-2.26900 ,0.86000 ,,,,
-2.26600 ,0.74000 ,,,,
-2.26200 ,0.70000 ,,,,
-2.25900 ,0.62000 ,,,,
-2.25600 ,0.58000 ,,,,
-2.25300 ,0.50000 ,,,,
-2.25000 ,0.42000 ,,,,
-2.24600 ,0.38000 ,,,,
-2.24300 ,0.30000 ,,,,
-2.24000 ,0.26000 ,,,,
-2.23700 ,0.22000 ,,,,
-2.23400 ,0.18000 ,,,,
-2.23000 ,0.14000 ,,,,
-2.22700 ,0.10000 ,,,,
-2.22400 ,0.06000 ,,,,
-2.22100 ,0.02000 ,,,,
-2.21800 ,-0.02000 ,,,,
-2.21400 ,-0.02000 ,,,,
-2.21100 ,-0.10000 ,,,,
-2.20800 ,-0.06000 ,,,,
-2.20500 ,-0.10000 ,,,,
-2.20200 ,-0.10000 ,,,,
-2.19800 ,-0.14000 ,,,,
-2.19500 ,-0.14000 ,,,,
-2.19200 ,-0.14000 ,,,,
-2.18900 ,-0.18000 ,,,,
-2.18600 ,-0.18000 ,,,,
-2.18200 ,-0.18000 ,,,,
-2.17900 ,-0.18000 ,,,,
-2.17600 ,-0.22000 ,,,,
-2.17300 ,-0.18000 ,,,,
-2.17000 ,-0.22000 ,,,,
-2.16600 ,-0.22000 ,,,,
-2.16300 ,-0.18000 ,,,,
-2.16000 ,-0.22000 ,,,,
-2.15700 ,-0.22000 ,,,,
-2.15400 ,-0.22000 ,,,,
-2.15000 ,-0.22000 ,,,,
-2.14700 ,-0.26000 ,,,,
-2.14400 ,-0.26000 ,,,,
-2.14100 ,-0.26000 ,,,,
-2.13800 ,-0.26000 ,,,,
-2.13400 ,-0.30000 ,,,,
-2.13100 ,-0.30000 ,,,,
-2.12800 ,-0.30000 ,,,,
-2.12500 ,-0.34000 ,,,,
-2.12200 ,-0.34000 ,,,,
-2.11800 ,-0.38000 ,,,,
-2.11500 ,-0.42000 ,,,,
-2.11200 ,-0.42000 ,,,,
-2.10900 ,-0.42000 ,,,,
-2.10600 ,-0.46000 ,,,,
-2.10200 ,-0.46000 ,,,,
-2.09900 ,-0.50000 ,,,,
-2.09600 ,-0.50000 ,,,,
-2.09300 ,-0.54000 ,,,,
-2.09000 ,-0.54000 ,,,,
-2.08600 ,-0.58000 ,,,,
-2.08300 ,-0.58000 ,,,,
-2.08000 ,-0.58000 ,,,,
-2.07700 ,-0.62000 ,,,,
-2.07400 ,-0.62000 ,,,,
-2.07000 ,-0.66000 ,,,,
-2.06700 ,-0.70000 ,,,,
-2.06400 ,-0.70000 ,,,,
-2.06100 ,-0.70000 ,,,,
-2.05800 ,-0.74000 ,,,,
-2.05400 ,-0.74000 ,,,,
-2.05100 ,-0.78000 ,,,,
-2.04800 ,-0.78000 ,,,,
-2.04500 ,-0.78000 ,,,,
-2.04200 ,-0.82000 ,,,,
-2.03800 ,-0.86000 ,,,,
-2.03500 ,-0.86000 ,,,,
-2.03200 ,-0.86000 ,,,,
-2.02900 ,-0.90000 ,,,,
-2.02600 ,-0.94000 ,,,,
-2.02200 ,-0.98000 ,,,,
-2.01900 ,-0.98000 ,,,,
-2.01600 ,-0.98000 ,,,,
-2.01300 ,-1.02000 ,,,,
-2.01000 ,-1.06000 ,,,,
-2.00600 ,-1.06000 ,,,,
-2.00300 ,-1.06000 ,,,,
-2.00000 ,-1.06000 ,,,,
-1.99700 ,-1.06000 ,,,,
-1.99400 ,-1.10000 ,,,,
-1.99000 ,-1.14000 ,,,,
-1.98700 ,-1.14000 ,,,,
-1.98400 ,-1.14000 ,,,,
-1.98100 ,-1.14000 ,,,,
-1.97800 ,-1.18000 ,,,,
-1.97400 ,-1.22000 ,,,,
-1.97100 ,-1.22000 ,,,,
-1.96800 ,-1.22000 ,,,,
-1.96500 ,-1.22000 ,,,,
-1.96200 ,-1.22000 ,,,,
-1.95800 ,-1.22000 ,,,,
-1.95500 ,-1.26000 ,,,,
-1.95200 ,-1.26000 ,,,,
-1.94900 ,-1.26000 ,,,,
-1.94600 ,-1.26000 ,,,,
-1.94200 ,-1.30000 ,,,,
-1.93900 ,-1.30000 ,,,,
-1.93600 ,-1.30000 ,,,,
-1.93300 ,-1.30000 ,,,,
-1.93000 ,-1.30000 ,,,,
-1.92600 ,-1.30000 ,,,,
-1.92300 ,-1.30000 ,,,,
-1.92000 ,-1.30000 ,,,,
-1.91700 ,-1.30000 ,,,,
-1.91400 ,-1.30000 ,,,,
-1.91000 ,-1.30000 ,,,,
-1.90700 ,-1.30000 ,,,,
-1.90400 ,-1.30000 ,,,,
-1.90100 ,-1.34000 ,,,,
-1.89800 ,-1.34000 ,,,,
-1.89400 ,-1.34000 ,,,,
-1.89100 ,-1.34000 ,,,,
-1.88800 ,-1.34000 ,,,,
-1.88500 ,-1.34000 ,,,,
-1.88200 ,-1.34000 ,,,,
-1.87800 ,-1.34000 ,,,,
-1.87500 ,-1.34000 ,,,,
-1.87200 ,-1.34000 ,,,,
-1.86900 ,-1.34000 ,,,,
-1.86600 ,-1.34000 ,,,,
-1.86200 ,-1.34000 ,,,,
-1.85900 ,-1.34000 ,,,,
-1.85600 ,-1.34000 ,,,,
-1.85300 ,-1.38000 ,,,,
-1.85000 ,-1.38000 ,,,,
-1.84600 ,-1.38000 ,,,,
-1.84300 ,-1.38000 ,,,,
-1.84000 ,-1.42000 ,,,,
-1.83700 ,-1.42000 ,,,,
-1.83400 ,-1.42000 ,,,,
-1.83000 ,-1.46000 ,,,,
-1.82700 ,-1.46000 ,,,,
-1.82400 ,-1.46000 ,,,,
-1.82100 ,-1.46000 ,,,,
-1.81800 ,-1.46000 ,,,,
-1.81400 ,-1.46000 ,,,,
-1.81100 ,-1.46000 ,,,,
-1.80800 ,-1.50000 ,,,,
-1.80500 ,-1.46000 ,,,,
-1.80200 ,-1.46000 ,,,,
-1.79800 ,-1.46000 ,,,,
-1.79500 ,-1.38000 ,,,,
-1.79200 ,-1.38000 ,,,,
-1.78900 ,-1.34000 ,,,,
-1.78600 ,-1.26000 ,,,,
-1.78200 ,-1.18000 ,,,,
-1.77900 ,-1.10000 ,,,,
-1.77600 ,-1.02000 ,,,,
-1.77300 ,-0.90000 ,,,,
-1.77000 ,-0.74000 ,,,,
-1.76600 ,-0.62000 ,,,,
-1.76300 ,-0.42000 ,,,,
-1.76000 ,-0.26000 ,,,,
-1.75700 ,-0.14000 ,,,,
-1.75400 ,0.10000 ,,,,
-1.75000 ,0.26000 ,,,,
-1.74700 ,0.50000 ,,,,
-1.74400 ,0.66000 ,,,,
-1.74100 ,0.90000 ,,,,
-1.73800 ,1.10000 ,,,,
-1.73400 ,1.34000 ,,,,
-1.73100 ,1.50000 ,,,,
-1.72800 ,1.70000 ,,,,
-1.72500 ,1.86000 ,,,,
-1.72200 ,2.06000 ,,,,
-1.71800 ,2.22000 ,,,,
-1.71500 ,2.38000 ,,,,
-1.71200 ,2.54000 ,,,,
-1.70900 ,2.66000 ,,,,
-1.70600 ,2.78000 ,,,,
-1.70200 ,2.86000 ,,,,
-1.69900 ,2.98000 ,,,,
-1.69600 ,3.06000 ,,,,
-1.69300 ,3.14000 ,,,,
-1.69000 ,3.22000 ,,,,
-1.68600 ,3.26000 ,,,,
-1.68300 ,3.30000 ,,,,
-1.68000 ,3.34000 ,,,,
-1.67700 ,3.38000 ,,,,
-1.67400 ,3.38000 ,,,,
-1.67000 ,3.42000 ,,,,
-1.66700 ,3.42000 ,,,,
-1.66400 ,3.42000 ,,,,
-1.66100 ,3.42000 ,,,,
-1.65800 ,3.42000 ,,,,
-1.65400 ,3.42000 ,,,,
-1.65100 ,3.42000 ,,,,
-1.64800 ,3.42000 ,,,,
-1.64500 ,3.38000 ,,,,
-1.64200 ,3.42000 ,,,,
-1.63800 ,3.38000 ,,,,
-1.63500 ,3.34000 ,,,,
-1.63200 ,3.34000 ,,,,
-1.62900 ,3.30000 ,,,,
-1.62600 ,3.30000 ,,,,
-1.62200 ,3.26000 ,,,,
-1.61900 ,3.22000 ,,,,
-1.61600 ,3.26000 ,,,,
-1.61300 ,3.18000 ,,,,
-1.61000 ,3.18000 ,,,,
-1.60600 ,3.14000 ,,,,
-1.60300 ,3.14000 ,,,,
-1.60000 ,3.10000 ,,,,
-1.59700 ,3.06000 ,,,,
-1.59400 ,3.02000 ,,,,
-1.59000 ,3.02000 ,,,,
-1.58700 ,2.98000 ,,,,
-1.58400 ,2.90000 ,,,,
-1.58100 ,2.94000 ,,,,
-1.57800 ,2.86000 ,,,,
-1.57400 ,2.82000 ,,,,
-1.57100 ,2.78000 ,,,,
-1.56800 ,2.78000 ,,,,
-1.56500 ,2.70000 ,,,,
-1.56200 ,2.66000 ,,,,
-1.55800 ,2.58000 ,,,,
-1.55500 ,2.58000 ,,,,
-1.55200 ,2.50000 ,,,,
-1.54900 ,2.42000 ,,,,
-1.54600 ,2.38000 ,,,,
-1.54200 ,2.30000 ,,,,
-1.53900 ,2.22000 ,,,,
-1.53600 ,2.14000 ,,,,
-1.53300 ,2.10000 ,,,,
-1.53000 ,1.98000 ,,,,
-1.52600 ,1.90000 ,,,,
-1.52300 ,1.82000 ,,,,
-1.52000 ,1.74000 ,,,,
-1.51700 ,1.62000 ,,,,
-1.51400 ,1.54000 ,,,,
-1.51000 ,1.46000 ,,,,
-1.50700 ,1.34000 ,,,,
-1.50400 ,1.26000 ,,,,
-1.50100 ,1.18000 ,,,,
-1.49800 ,1.06000 ,,,,
-1.49400 ,0.98000 ,,,,
-1.49100 ,0.90000 ,,,,
-1.48800 ,0.82000 ,,,,
-1.48500 ,0.74000 ,,,,
-1.48200 ,0.66000 ,,,,
-1.47800 ,0.58000 ,,,,
-1.47500 ,0.54000 ,,,,
-1.47200 ,0.46000 ,,,,
-1.46900 ,0.42000 ,,,,
-1.46600 ,0.34000 ,,,,
-1.46200 ,0.30000 ,,,,
-1.45900 ,0.26000 ,,,,
-1.45600 ,0.22000 ,,,,
-1.45300 ,0.18000 ,,,,
-1.45000 ,0.14000 ,,,,
-1.44600 ,0.14000 ,,,,
-1.44300 ,0.10000 ,,,,
-1.44000 ,0.10000 ,,,,
-1.43700 ,0.10000 ,,,,
-1.43400 ,0.06000 ,,,,
-1.43000 ,0.02000 ,,,,
-1.42700 ,0.02000 ,,,,
-1.42400 ,0.02000 ,,,,
-1.42100 ,0.02000 ,,,,
-1.41800 ,-0.02000 ,,,,
-1.41400 ,-0.06000 ,,,,
-1.41100 ,-0.02000 ,,,,
-1.40800 ,-0.02000 ,,,,
-1.40500 ,-0.02000 ,,,,
-1.40200 ,-0.02000 ,,,,
-1.39800 ,-0.06000 ,,,,
-1.39500 ,-0.10000 ,,,,
-1.39200 ,-0.10000 ,,,,
-1.38900 ,-0.10000 ,,,,
-1.38600 ,-0.10000 ,,,,
-1.38200 ,-0.10000 ,,,,
-1.37900 ,-0.10000 ,,,,
-1.37600 ,-0.18000 ,,,,
-1.37300 ,-0.18000 ,,,,
-1.37000 ,-0.14000 ,,,,
-1.36600 ,-0.18000 ,,,,
-1.36300 ,-0.18000 ,,,,
-1.36000 ,-0.22000 ,,,,
-1.35700 ,-0.26000 ,,,,
-1.35400 ,-0.26000 ,,,,
-1.35000 ,-0.26000 ,,,,
-1.34700 ,-0.30000 ,,,,
-1.34400 ,-0.34000 ,,,,
-1.34100 ,-0.38000 ,,,,
-1.33800 ,-0.38000 ,,,,
-1.33400 ,-0.34000 ,,,,
-1.33100 ,-0.38000 ,,,,
-1.32800 ,-0.42000 ,,,,
-1.32500 ,-0.46000 ,,,,
-1.32200 ,-0.46000 ,,,,
-1.31800 ,-0.50000 ,,,,
-1.31500 ,-0.50000 ,,,,
-1.31200 ,-0.54000 ,,,,
-1.30900 ,-0.58000 ,,,,
-1.30600 ,-0.58000 ,,,,
-1.30200 ,-0.62000 ,,,,
-1.29900 ,-0.66000 ,,,,
-1.29600 ,-0.66000 ,,,,
-1.29300 ,-0.70000 ,,,,
-1.29000 ,-0.74000 ,,,,
-1.28600 ,-0.74000 ,,,,
-1.28300 ,-0.74000 ,,,,
-1.28000 ,-0.78000 ,,,,
-1.27700 ,-0.82000 ,,,,
-1.27400 ,-0.82000 ,,,,
-1.27000 ,-0.82000 ,,,,
-1.26700 ,-0.86000 ,,,,
-1.26400 ,-0.86000 ,,,,
-1.26100 ,-0.94000 ,,,,
-1.25800 ,-0.94000 ,,,,
-1.25400 ,-0.94000 ,,,,
-1.25100 ,-0.94000 ,,,,
-1.24800 ,-0.94000 ,,,,
-1.24500 ,-0.98000 ,,,,
-1.24200 ,-1.02000 ,,,,
-1.23800 ,-1.02000 ,,,,
-1.23500 ,-1.06000 ,,,,
-1.23200 ,-1.06000 ,,,,
-1.22900 ,-1.06000 ,,,,
-1.22600 ,-1.10000 ,,,,
-1.22200 ,-1.14000 ,,,,
-1.21900 ,-1.14000 ,,,,
-1.21600 ,-1.14000 ,,,,
-1.21300 ,-1.14000 ,,,,
-1.21000 ,-1.18000 ,,,,
-1.20600 ,-1.18000 ,,,,
-1.20300 ,-1.22000 ,,,,
-1.20000 ,-1.22000 ,,,,
-1.19700 ,-1.26000 ,,,,
-1.19400 ,-1.26000 ,,,,
-1.19000 ,-1.26000 ,,,,
-1.18700 ,-1.30000 ,,,,
-1.18400 ,-1.34000 ,,,,
-1.18100 ,-1.30000 ,,,,
-1.17800 ,-1.30000 ,,,,
-1.17400 ,-1.30000 ,,,,
-1.17100 ,-1.34000 ,,,,
-1.16800 ,-1.34000 ,,,,
-1.16500 ,-1.34000 ,,,,
-1.16200 ,-1.34000 ,,,,
-1.15800 ,-1.38000 ,,,,
-1.15500 ,-1.34000 ,,,,
-1.15200 ,-1.38000 ,,,,
-1.14900 ,-1.34000 ,,,,
-1.14600 ,-1.38000 ,,,,
-1.14200 ,-1.38000 ,,,,
-1.13900 ,-1.42000 ,,,,
-1.13600 ,-1.38000 ,,,,
-1.13300 ,-1.38000 ,,,,
-1.13000 ,-1.38000 ,,,,
-1.12600 ,-1.42000 ,,,,
-1.12300 ,-1.42000 ,,,,
-1.12000 ,-1.42000 ,,,,
-1.11700 ,-1.42000 ,,,,
-1.11400 ,-1.42000 ,,,,
-1.11000 ,-1.42000 ,,,,
-1.10700 ,-1.46000 ,,,,
-1.10400 ,-1.46000 ,,,,
-1.10100 ,-1.46000 ,,,,
-1.09800 ,-1.42000 ,,,,
-1.09400 ,-1.42000 ,,,,
-1.09100 ,-1.46000 ,,,,
-1.08800 ,-1.46000 ,,,,
-1.08500 ,-1.46000 ,,,,
-1.08200 ,-1.46000 ,,,,
-1.07800 ,-1.50000 ,,,,
-1.07500 ,-1.46000 ,,,,
-1.07200 ,-1.46000 ,,,,
-1.06900 ,-1.50000 ,,,,
-1.06600 ,-1.50000 ,,,,
-1.06200 ,-1.54000 ,,,,
-1.05900 ,-1.50000 ,,,,
-1.05600 ,-1.50000 ,,,,
-1.05300 ,-1.58000 ,,,,
-1.05000 ,-1.54000 ,,,,
-1.04600 ,-1.54000 ,,,,
-1.04300 ,-1.58000 ,,,,
-1.04000 ,-1.54000 ,,,,
-1.03700 ,-1.62000 ,,,,
-1.03400 ,-1.58000 ,,,,
-1.03000 ,-1.62000 ,,,,
-1.02700 ,-1.58000 ,,,,
-1.02400 ,-1.58000 ,,,,
-1.02100 ,-1.58000 ,,,,
-1.01800 ,-1.58000 ,,,,
-1.01400 ,-1.58000 ,,,,
-1.01100 ,-1.50000 ,,,,
-1.00800 ,-1.46000 ,,,,
-1.00500 ,-1.42000 ,,,,
-1.00200 ,-1.38000 ,,,,
-0.99840 ,-1.30000 ,,,,
-0.99520 ,-1.22000 ,,,,
-0.99200 ,-1.14000 ,,,,
-0.98880 ,-1.02000 ,,,,
-0.98560 ,-0.94000 ,,,,
-0.98240 ,-0.78000 ,,,,
-0.97920 ,-0.62000 ,,,,
-0.97600 ,-0.46000 ,,,,
-0.97280 ,-0.26000 ,,,,
-0.96960 ,-0.10000 ,,,,
-0.96640 ,0.10000 ,,,,
-0.96320 ,0.30000 ,,,,
-0.96000 ,0.50000 ,,,,
-0.95680 ,0.70000 ,,,,
-0.95360 ,0.94000 ,,,,
-0.95040 ,1.14000 ,,,,
-0.94720 ,1.34000 ,,,,
-0.94400 ,1.54000 ,,,,
-0.94080 ,1.74000 ,,,,
-0.93760 ,1.94000 ,,,,
-0.93440 ,2.10000 ,,,,
-0.93120 ,2.30000 ,,,,
-0.92800 ,2.42000 ,,,,
-0.92480 ,2.58000 ,,,,
-0.92160 ,2.70000 ,,,,
-0.91840 ,2.86000 ,,,,
-0.91520 ,2.90000 ,,,,
-0.91200 ,2.98000 ,,,,
-0.90880 ,3.10000 ,,,,
-0.90560 ,3.14000 ,,,,
-0.90240 ,3.22000 ,,,,
-0.89920 ,3.26000 ,,,,
-0.89600 ,3.30000 ,,,,
-0.89280 ,3.34000 ,,,,
-0.88960 ,3.38000 ,,,,
-0.88640 ,3.38000 ,,,,
-0.88320 ,3.38000 ,,,,
-0.88000 ,3.38000 ,,,,
-0.87680 ,3.38000 ,,,,
-0.87360 ,3.38000 ,,,,
-0.87040 ,3.38000 ,,,,
-0.86720 ,3.42000 ,,,,
-0.86400 ,3.38000 ,,,,
-0.86080 ,3.38000 ,,,,
-0.85760 ,3.38000 ,,,,
-0.85440 ,3.38000 ,,,,
-0.85120 ,3.34000 ,,,,
-0.84800 ,3.38000 ,,,,
-0.84480 ,3.34000 ,,,,
-0.84160 ,3.34000 ,,,,
-0.83840 ,3.30000 ,,,,
-0.83520 ,3.30000 ,,,,
-0.83200 ,3.26000 ,,,,
-0.82880 ,3.22000 ,,,,
-0.82560 ,3.22000 ,,,,
-0.82240 ,3.18000 ,,,,
-0.81920 ,3.14000 ,,,,
-0.81600 ,3.14000 ,,,,
-0.81280 ,3.06000 ,,,,
-0.80960 ,3.02000 ,,,,
-0.80640 ,2.98000 ,,,,
-0.80320 ,3.02000 ,,,,
-0.80000 ,2.94000 ,,,,
-0.79680 ,2.90000 ,,,,
-0.79360 ,2.82000 ,,,,
-0.79040 ,2.78000 ,,,,
-0.78720 ,2.74000 ,,,,
-0.78400 ,2.70000 ,,,,
-0.78080 ,2.66000 ,,,,
-0.77760 ,2.62000 ,,,,
-0.77440 ,2.62000 ,,,,
-0.77120 ,2.54000 ,,,,
-0.76800 ,2.50000 ,,,,
-0.76480 ,2.46000 ,,,,
-0.76160 ,2.38000 ,,,,
-0.75840 ,2.34000 ,,,,
-0.75520 ,2.26000 ,,,,
-0.75200 ,2.18000 ,,,,
-0.74880 ,2.10000 ,,,,
-0.74560 ,2.06000 ,,,,
-0.74240 ,1.94000 ,,,,
-0.73920 ,1.86000 ,,,,
-0.73600 ,1.78000 ,,,,
-0.73280 ,1.70000 ,,,,
-0.72960 ,1.58000 ,,,,
-0.72640 ,1.46000 ,,,,
-0.72320 ,1.38000 ,,,,
-0.72000 ,1.30000 ,,,,
-0.71680 ,1.22000 ,,,,
-0.71360 ,1.10000 ,,,,
-0.71040 ,1.02000 ,,,,
-0.70720 ,0.90000 ,,,,
-0.70400 ,0.82000 ,,,,
-0.70080 ,0.74000 ,,,,
-0.69760 ,0.70000 ,,,,
-0.69440 ,0.62000 ,,,,
-0.69120 ,0.54000 ,,,,
-0.68800 ,0.50000 ,,,,
-0.68480 ,0.46000 ,,,,
-0.68160 ,0.38000 ,,,,
-0.67840 ,0.34000 ,,,,
-0.67520 ,0.30000 ,,,,
-0.67200 ,0.26000 ,,,,
-0.66880 ,0.22000 ,,,,
-0.66560 ,0.22000 ,,,,
-0.66240 ,0.18000 ,,,,
-0.65920 ,0.14000 ,,,,
-0.65600 ,0.10000 ,,,,
-0.65280 ,0.10000 ,,,,
-0.64960 ,0.10000 ,,,,
-0.64640 ,0.06000 ,,,,
-0.64320 ,0.02000 ,,,,
-0.64000 ,0.06000 ,,,,
-0.63680 ,0.06000 ,,,,
-0.63360 ,-0.02000 ,,,,
-0.63040 ,-0.02000 ,,,,
-0.62720 ,-0.06000 ,,,,
-0.62400 ,-0.06000 ,,,,
-0.62080 ,-0.06000 ,,,,
-0.61760 ,-0.06000 ,,,,
-0.61440 ,-0.06000 ,,,,
-0.61120 ,-0.10000 ,,,,
-0.60800 ,-0.10000 ,,,,
-0.60480 ,-0.10000 ,,,,
-0.60160 ,-0.10000 ,,,,
-0.59840 ,-0.10000 ,,,,
-0.59520 ,-0.14000 ,,,,
-0.59200 ,-0.10000 ,,,,
-0.58880 ,-0.18000 ,,,,
-0.58560 ,-0.18000 ,,,,
-0.58240 ,-0.18000 ,,,,
-0.57920 ,-0.22000 ,,,,
-0.57600 ,-0.18000 ,,,,
-0.57280 ,-0.22000 ,,,,
-0.56960 ,-0.22000 ,,,,
-0.56640 ,-0.26000 ,,,,
-0.56320 ,-0.26000 ,,,,
-0.56000 ,-0.30000 ,,,,
-0.55680 ,-0.34000 ,,,,
-0.55360 ,-0.30000 ,,,,
-0.55040 ,-0.38000 ,,,,
-0.54720 ,-0.38000 ,,,,
-0.54400 ,-0.38000 ,,,,
-0.54080 ,-0.42000 ,,,,
-0.53760 ,-0.46000 ,,,,
-0.53440 ,-0.46000 ,,,,
-0.53120 ,-0.46000 ,,,,
-0.52800 ,-0.50000 ,,,,
-0.52480 ,-0.54000 ,,,,
