BPDatas/SH_20230614.CSV

TIME,CH1,SBP,DBP,Model,TBS1102C
-3.2,2.78,102,54,Firmware Version,v2015-08-04-prequal4ch70_v1.3
-3.197,2.78,,,,
-3.194,2.78,,,Point Format,Y
-3.19,2.86,,,Horizontal Units,S
-3.187,2.94,,,Horizontal Scale,0.4
-3.184,2.9,,,Sample Interval,0.0032
-3.181,2.74,,,Filter Frequency,2.00E+08
-3.178,2.62,,,Record Length,2000
-3.174,2.62,,,Gating,0.0% to 100.0%
-3.171,2.62,,,Probe Attenuation,10
-3.168,2.58,,,Vertical Units,V
-3.165,2.46,,,Vertical Offset,0
-3.162,2.26,,,Vertical Scale,1
-3.158,2.18,,,Label,
-3.155,2.14,,,,
-3.152,2.14,,,,
-3.149,2.02,,,,
-3.146,1.86,,,,
-3.142,1.74,,,,
-3.139,1.66,,,,
-3.136,1.7,,,,
-3.133,1.66,,,,
-3.13,1.46,,,,
-3.126,1.3,,,,
-3.123,1.26,,,,
-3.12,1.3,,,,
-3.117,1.26,,,,
-3.114,1.14,,,,
-3.11,0.94,,,,
-3.107,0.9,,,,
-3.104,0.94,,,,
-3.101,0.98,,,,
-3.098,0.9,,,,
-3.094,0.7,,,,
-3.091,0.58,,,,
-3.088,0.66,,,,
-3.085,0.74,,,,
-3.082,0.7,,,,
-3.078,0.54,,,,
-3.075,0.42,,,,
-3.072,0.46,,,,
-3.069,0.54,,,,
-3.066,0.58,,,,
-3.062,0.46,,,,
-3.059,0.3,,,,
-3.056,0.3,,,,
-3.053,0.42,,,,
-3.05,0.46,,,,
-3.046,0.34,,,,
-3.043,0.22,,,,
-3.04,0.22,,,,
-3.037,0.26,,,,
-3.034,0.38,,,,
-3.03,0.3,,,,
-3.027,0.14,,,,
-3.024,0.1,,,,
-3.021,0.14,,,,
-3.018,0.26,,,,
-3.014,0.26,,,,
-3.011,0.14,,,,
-3.008,0.02,,,,
-3.005,0.06,,,,
-3.002,0.18,,,,
-2.998,0.22,,,,
-2.995,0.14,,,,
-2.992,0.06,,,,
-2.989,0.06,,,,
-2.986,0.18,,,,
-2.982,0.3,,,,
-2.979,0.22,,,,
-2.976,0.1,,,,
-2.973,0.14,,,,
-2.97,0.26,,,,
-2.966,0.34,,,,
-2.963,0.34,,,,
-2.96,0.3,,,,
-2.957,0.26,,,,
-2.954,0.34,,,,
-2.95,0.46,,,,
-2.947,0.54,,,,
-2.944,0.46,,,,
-2.941,0.42,,,,
-2.938,0.46,,,,
-2.934,0.62,,,,
-2.931,0.7,,,,
-2.928,0.66,,,,
-2.925,0.54,,,,
-2.922,0.58,,,,
-2.918,0.66,,,,
-2.915,0.82,,,,
-2.912,0.74,,,,
-2.909,0.62,,,,
-2.906,0.62,,,,
-2.902,0.66,,,,
-2.899,0.82,,,,
-2.896,0.78,,,,
-2.893,0.62,,,,
-2.89,0.58,,,,
-2.886,0.58,,,,
-2.883,0.7,,,,
-2.88,0.66,,,,
-2.877,0.54,,,,
-2.874,0.42,,,,
-2.87,0.42,,,,
-2.867,0.5,,,,
-2.864,0.58,,,,
-2.861,0.46,,,,
-2.858,0.26,,,,
-2.854,0.22,,,,
-2.851,0.3,,,,
-2.848,0.38,,,,
-2.845,0.26,,,,
-2.842,0.1,,,,
-2.838,0.06,,,,
-2.835,0.1,,,,
-2.832,0.18,,,,
-2.829,0.14,,,,
-2.826,-0.02,,,,
-2.822,-0.14,,,,
-2.819,-0.18,,,,
-2.816,-0.02,,,,
-2.813,-0.02,,,,
-2.81,-0.18,,,,
-2.806,-0.3,,,,
-2.803,-0.38,,,,
-2.8,-0.22,,,,
-2.797,-0.18,,,,
-2.794,-0.26,,,,
-2.79,-0.42,,,,
-2.787,-0.46,,,,
-2.784,-0.38,,,,
-2.781,-0.3,,,,
-2.778,-0.34,,,,
-2.774,-0.5,,,,
-2.771,-0.62,,,,
-2.768,-0.54,,,,
-2.765,-0.34,,,,
-2.762,-0.38,,,,
-2.758,-0.5,,,,
-2.755,-0.66,,,,
-2.752,-0.62,,,,
-2.749,-0.46,,,,
-2.746,-0.46,,,,
-2.742,-0.58,,,,
-2.739,-0.7,,,,
-2.736,-0.66,,,,
-2.733,-0.58,,,,
-2.73,-0.5,,,,
-2.726,-0.62,,,,
-2.723,-0.7,,,,
-2.72,-0.7,,,,
-2.717,-0.66,,,,
-2.714,-0.54,,,,
-2.71,-0.58,,,,
-2.707,-0.66,,,,
-2.704,-0.7,,,,
-2.701,-0.66,,,,
-2.698,-0.58,,,,
-2.694,-0.58,,,,
-2.691,-0.66,,,,
-2.688,-0.66,,,,
-2.685,-0.66,,,,
-2.682,-0.62,,,,
-2.678,-0.58,,,,
-2.675,-0.66,,,,
-2.672,-0.66,,,,
-2.669,-0.66,,,,
-2.666,-0.58,,,,
-2.662,-0.58,,,,
-2.659,-0.58,,,,
-2.656,-0.66,,,,
-2.653,-0.62,,,,
-2.65,-0.58,,,,
-2.646,-0.54,,,,
-2.643,-0.54,,,,
-2.64,-0.62,,,,
-2.637,-0.62,,,,
-2.634,-0.58,,,,
-2.63,-0.5,,,,
-2.627,-0.54,,,,
-2.624,-0.58,,,,
-2.621,-0.62,,,,
-2.618,-0.58,,,,
-2.614,-0.54,,,,
-2.611,-0.54,,,,
-2.608,-0.58,,,,
-2.605,-0.58,,,,
-2.602,-0.58,,,,
-2.598,-0.5,,,,
-2.595,-0.54,,,,
-2.592,-0.54,,,,
-2.589,-0.58,,,,
-2.586,-0.54,,,,
-2.582,-0.54,,,,
-2.579,-0.54,,,,
-2.576,-0.54,,,,
-2.573,-0.58,,,,
-2.57,-0.58,,,,
-2.566,-0.58,,,,
-2.563,-0.58,,,,
-2.56,-0.54,,,,
-2.557,-0.58,,,,
-2.554,-0.62,,,,
-2.55,-0.58,,,,
-2.547,-0.62,,,,
-2.544,-0.62,,,,
-2.541,-0.62,,,,
-2.538,-0.62,,,,
-2.534,-0.66,,,,
-2.531,-0.62,,,,
-2.528,-0.62,,,,
-2.525,-0.66,,,,
-2.522,-0.7,,,,
-2.518,-0.66,,,,
-2.515,-0.7,,,,
-2.512,-0.7,,,,
-2.509,-0.7,,,,
-2.506,-0.7,,,,
-2.502,-0.7,,,,
-2.499,-0.74,,,,
-2.496,-0.74,,,,
-2.493,-0.74,,,,
-2.49,-0.74,,,,
-2.486,-0.78,,,,
-2.483,-0.74,,,,
-2.48,-0.74,,,,
-2.477,-0.74,,,,
-2.474,-0.78,,,,
-2.47,-0.74,,,,
-2.467,-0.78,,,,
-2.464,-0.74,,,,
-2.461,-0.78,,,,
-2.458,-0.78,,,,
-2.454,-0.78,,,,
-2.451,-0.78,,,,
-2.448,-0.78,,,,
-2.445,-0.78,,,,
-2.442,-0.82,,,,
-2.438,-0.78,,,,
-2.435,-0.82,,,,
-2.432,-0.82,,,,
-2.429,-0.82,,,,
-2.426,-0.82,,,,
-2.422,-0.86,,,,
-2.419,-0.9,,,,
-2.416,-0.82,,,,
-2.413,-0.9,,,,
-2.41,-0.86,,,,
-2.406,-0.9,,,,
-2.403,-0.9,,,,
-2.4,-0.9,,,,
-2.397,-0.9,,,,
-2.394,-0.9,,,,
-2.39,-0.94,,,,
-2.387,-0.94,,,,
-2.384,-0.94,,,,
-2.381,-0.94,,,,
-2.378,-0.98,,,,
-2.374,-0.94,,,,
-2.371,-0.98,,,,
-2.368,-0.98,,,,
-2.365,-0.98,,,,
-2.362,-1.02,,,,
-2.358,-1.02,,,,
-2.355,-1.02,,,,
-2.352,-1.06,,,,
-2.349,-1.02,,,,
-2.346,-1.06,,,,
-2.342,-1.02,,,,
-2.339,-1.06,,,,
-2.336,-1.06,,,,
-2.333,-1.06,,,,
-2.33,-1.02,,,,
-2.326,-1.02,,,,
-2.323,-0.98,,,,
-2.32,-0.94,,,,
-2.317,-0.86,,,,
-2.314,-0.78,,,,
-2.31,-0.7,,,,
-2.307,-0.58,,,,
-2.304,-0.46,,,,
-2.301,-0.34,,,,
-2.298,-0.18,,,,
-2.294,-0.02,,,,
-2.291,0.1,,,,
-2.288,0.26,,,,
-2.285,0.46,,,,
-2.282,0.66,,,,
-2.278,0.78,,,,
-2.275,0.98,,,,
-2.272,1.1,,,,
-2.269,1.26,,,,
-2.266,1.42,,,,
-2.262,1.54,,,,
-2.259,1.66,,,,
-2.256,1.82,,,,
-2.253,1.9,,,,
-2.25,2.06,,,,
-2.246,2.1,,,,
-2.243,2.22,,,,
-2.24,2.3,,,,
-2.237,2.34,,,,
-2.234,2.42,,,,
-2.23,2.46,,,,
-2.227,2.5,,,,
-2.224,2.54,,,,
-2.221,2.54,,,,
-2.218,2.54,,,,
-2.214,2.54,,,,
-2.211,2.5,,,,
-2.208,2.46,,,,
-2.205,2.42,,,,
-2.202,2.34,,,,
-2.198,2.34,,,,
-2.195,2.26,,,,
-2.192,2.22,,,,
-2.189,2.1,,,,
-2.186,2.06,,,,
-2.182,1.98,,,,
-2.179,1.94,,,,
-2.176,1.82,,,,
-2.173,1.74,,,,
-2.17,1.66,,,,
-2.166,1.58,,,,
-2.163,1.54,,,,
-2.16,1.5,,,,
-2.157,1.38,,,,
-2.154,1.3,,,,
-2.15,1.3,,,,
-2.147,1.22,,,,
-2.144,1.14,,,,
-2.141,1.06,,,,
-2.138,1.02,,,,
-2.134,0.94,,,,
-2.131,0.94,,,,
-2.128,0.86,,,,
-2.125,0.82,,,,
-2.122,0.78,,,,
-2.118,0.74,,,,
-2.115,0.7,,,,
-2.112,0.66,,,,
-2.109,0.66,,,,
-2.106,0.62,,,,
-2.102,0.62,,,,
-2.099,0.58,,,,
-2.096,0.58,,,,
-2.093,0.54,,,,
-2.09,0.54,,,,
-2.086,0.54,,,,
-2.083,0.5,,,,
-2.08,0.5,,,,
-2.077,0.46,,,,
-2.074,0.46,,,,
-2.07,0.42,,,,
-2.067,0.42,,,,
-2.064,0.38,,,,
-2.061,0.38,,,,
-2.058,0.38,,,,
-2.054,0.34,,,,
-2.051,0.34,,,,
-2.048,0.3,,,,
-2.045,0.34,,,,
-2.042,0.26,,,,
-2.038,0.3,,,,
-2.035,0.3,,,,
-2.032,0.3,,,,
-2.029,0.26,,,,
-2.026,0.3,,,,
-2.022,0.3,,,,
-2.019,0.3,,,,
-2.016,0.3,,,,
-2.013,0.34,,,,
-2.01,0.34,,,,
-2.006,0.38,,,,
-2.003,0.38,,,,
-2,0.42,,,,
-1.997,0.42,,,,
-1.994,0.42,,,,
-1.99,0.46,,,,
-1.987,0.46,,,,
-1.984,0.5,,,,
-1.981,0.54,,,,
-1.978,0.54,,,,
-1.974,0.54,,,,
-1.971,0.58,,,,
-1.968,0.58,,,,
-1.965,0.58,,,,
-1.962,0.62,,,,
-1.958,0.58,,,,
-1.955,0.62,,,,
-1.952,0.62,,,,
-1.949,0.66,,,,
-1.946,0.66,,,,
-1.942,0.66,,,,
-1.939,0.66,,,,
-1.936,0.66,,,,
-1.933,0.62,,,,
-1.93,0.62,,,,
-1.926,0.66,,,,
-1.923,0.62,,,,
-1.92,0.62,,,,
-1.917,0.58,,,,
-1.914,0.62,,,,
-1.91,0.5,,,,
-1.907,0.54,,,,
-1.904,0.5,,,,
-1.901,0.5,,,,
-1.898,0.42,,,,
-1.894,0.42,,,,
-1.891,0.38,,,,
-1.888,0.34,,,,
-1.885,0.3,,,,
-1.882,0.26,,,,
-1.878,0.26,,,,
-1.875,0.18,,,,
-1.872,0.18,,,,
-1.869,0.18,,,,
-1.866,0.1,,,,
-1.862,0.1,,,,
-1.859,0.1,,,,
-1.856,0.02,,,,
-1.853,-0.02,,,,
-1.85,-0.02,,,,
-1.846,-0.06,,,,
-1.843,-0.1,,,,
-1.84,-0.18,,,,
-1.837,-0.14,,,,
-1.834,-0.14,,,,
-1.83,-0.22,,,,
-1.827,-0.26,,,,
-1.824,-0.3,,,,
-1.821,-0.3,,,,
-1.818,-0.34,,,,
-1.814,-0.38,,,,
-1.811,-0.38,,,,
-1.808,-0.42,,,,
-1.805,-0.42,,,,
-1.802,-0.42,,,,
-1.798,-0.5,,,,
-1.795,-0.46,,,,
-1.792,-0.46,,,,
-1.789,-0.5,,,,
-1.786,-0.5,,,,
-1.782,-0.54,,,,
-1.779,-0.54,,,,
-1.776,-0.58,,,,
-1.773,-0.58,,,,
-1.77,-0.54,,,,
-1.766,-0.58,,,,
-1.763,-0.58,,,,
-1.76,-0.58,,,,
-1.757,-0.62,,,,
-1.754,-0.62,,,,
-1.75,-0.62,,,,
-1.747,-0.62,,,,
-1.744,-0.62,,,,
-1.741,-0.62,,,,
-1.738,-0.62,,,,
-1.734,-0.62,,,,
-1.731,-0.62,,,,
-1.728,-0.62,,,,
-1.725,-0.62,,,,
-1.722,-0.58,,,,
-1.718,-0.62,,,,
-1.715,-0.62,,,,
-1.712,-0.62,,,,
-1.709,-0.62,,,,
-1.706,-0.58,,,,
-1.702,-0.62,,,,
-1.699,-0.62,,,,
-1.696,-0.58,,,,
-1.693,-0.58,,,,
-1.69,-0.62,,,,
-1.686,-0.54,,,,
-1.683,-0.54,,,,
-1.68,-0.58,,,,
-1.677,-0.58,,,,
-1.674,-0.58,,,,
-1.67,-0.58,,,,
-1.667,-0.54,,,,
-1.664,-0.54,,,,
-1.661,-0.54,,,,
-1.658,-0.54,,,,
-1.654,-0.54,,,,
-1.651,-0.54,,,,
-1.648,-0.54,,,,
-1.645,-0.54,,,,
-1.642,-0.54,,,,
-1.638,-0.58,,,,
-1.635,-0.58,,,,
-1.632,-0.58,,,,
-1.629,-0.54,,,,
-1.626,-0.54,,,,
-1.622,-0.58,,,,
-1.619,-0.58,,,,
-1.616,-0.58,,,,
-1.613,-0.58,,,,
-1.61,-0.58,,,,
-1.606,-0.58,,,,
-1.603,-0.62,,,,
-1.6,-0.58,,,,
-1.597,-0.58,,,,
-1.594,-0.58,,,,
-1.59,-0.62,,,,
-1.587,-0.62,,,,
-1.584,-0.58,,,,
-1.581,-0.62,,,,
-1.578,-0.58,,,,
-1.574,-0.58,,,,
-1.571,-0.62,,,,
-1.568,-0.62,,,,
-1.565,-0.66,,,,
-1.562,-0.62,,,,
-1.558,-0.62,,,,
-1.555,-0.66,,,,
-1.552,-0.62,,,,
-1.549,-0.66,,,,
-1.546,-0.62,,,,
-1.542,-0.66,,,,
-1.539,-0.66,,,,
-1.536,-0.66,,,,
-1.533,-0.7,,,,
-1.53,-0.7,,,,
-1.526,-0.7,,,,
-1.523,-0.74,,,,
-1.52,-0.7,,,,
-1.517,-0.7,,,,
-1.514,-0.78,,,,
-1.51,-0.74,,,,
-1.507,-0.78,,,,
-1.504,-0.74,,,,
-1.501,-0.78,,,,
-1.498,-0.82,,,,
-1.494,-0.78,,,,
-1.491,-0.78,,,,
-1.488,-0.78,,,,
-1.485,-0.82,,,,
-1.482,-0.82,,,,
-1.478,-0.86,,,,
-1.475,-0.82,,,,
-1.472,-0.86,,,,
-1.469,-0.86,,,,
-1.466,-0.82,,,,
-1.462,-0.82,,,,
-1.459,-0.86,,,,
-1.456,-0.86,,,,
-1.453,-0.86,,,,
-1.45,-0.86,,,,
-1.446,-0.86,,,,
-1.443,-0.86,,,,
-1.44,-0.9,,,,
-1.437,-0.86,,,,
-1.434,-0.9,,,,
-1.43,-0.9,,,,
-1.427,-0.86,,,,
-1.424,-0.86,,,,
-1.421,-0.9,,,,
-1.418,-0.86,,,,
-1.414,-0.86,,,,
-1.411,-0.86,,,,
-1.408,-0.9,,,,
-1.405,-0.9,,,,
-1.402,-0.9,,,,
-1.398,-0.9,,,,
-1.395,-0.9,,,,
-1.392,-0.94,,,,
-1.389,-0.94,,,,
-1.386,-0.94,,,,
-1.382,-0.98,,,,
-1.379,-0.9,,,,
-1.376,-0.94,,,,
-1.373,-0.98,,,,
-1.37,-0.98,,,,
-1.366,-1.02,,,,
-1.363,-1.02,,,,
-1.36,-1.02,,,,
-1.357,-1.02,,,,
-1.354,-1.06,,,,
-1.35,-1.06,,,,
-1.347,-1.06,,,,
-1.344,-1.02,,,,
-1.341,-1.02,,,,
-1.338,-1.02,,,,
-1.334,-1.02,,,,
-1.331,-1.06,,,,
-1.328,-1.02,,,,
-1.325,-0.98,,,,
-1.322,-0.94,,,,
-1.318,-0.9,,,,
-1.315,-0.78,,,,
-1.312,-0.74,,,,
-1.309,-0.62,,,,
-1.306,-0.5,,,,
-1.302,-0.38,,,,
-1.299,-0.26,,,,
-1.296,-0.1,,,,
-1.293,0.06,,,,
-1.29,0.18,,,,
-1.286,0.34,,,,
-1.283,0.5,,,,
-1.28,0.66,,,,
-1.277,0.82,,,,
-1.274,1.02,,,,
-1.27,1.14,,,,
-1.267,1.3,,,,
-1.264,1.5,,,,
-1.261,1.58,,,,
-1.258,1.78,,,,
-1.254,1.86,,,,
-1.251,1.98,,,,
-1.248,2.14,,,,
-1.245,2.22,,,,
-1.242,2.3,,,,
-1.238,2.46,,,,
-1.235,2.54,,,,
-1.232,2.66,,,,
-1.229,2.78,,,,
-1.226,2.74,,,,
-1.222,2.7,,,,
-1.219,2.7,,,,
-1.216,2.74,,,,
-1.213,2.82,,,,
-1.21,2.78,,,,
-1.206,2.66,,,,
-1.203,2.5,,,,
-1.2,2.46,,,,
-1.197,2.54,,,,
-1.194,2.54,,,,
-1.19,2.34,,,,
-1.187,2.22,,,,
-1.184,2.1,,,,
-1.181,2.06,,,,
-1.178,2.1,,,,
-1.174,2.02,,,,
-1.171,1.86,,,,
-1.168,1.7,,,,
-1.165,1.66,,,,
-1.162,1.7,,,,
-1.158,1.66,,,,
-1.155,1.54,,,,
-1.152,1.34,,,,
-1.149,1.26,,,,
-1.146,1.26,,,,
-1.142,1.34,,,,
-1.139,1.22,,,,
-1.136,1.06,,,,
-1.133,0.94,,,,
-1.13,1.02,,,,
-1.126,1.06,,,,
-1.123,0.98,,,,
-1.12,0.82,,,,
-1.117,0.74,,,,
-1.114,0.74,,,,
-1.11,0.86,,,,
-1.107,0.86,,,,
-1.104,0.74,,,,
-1.101,0.62,,,,
-1.098,0.62,,,,
-1.094,0.74,,,,
-1.091,0.74,,,,
-1.088,0.7,,,,
-1.085,0.62,,,,
-1.082,0.54,,,,
-1.078,0.62,,,,
-1.075,0.7,,,,
-1.072,0.66,,,,
-1.069,0.54,,,,
-1.066,0.46,,,,
-1.062,0.54,,,,
-1.059,0.62,,,,
-1.056,0.62,,,,
-1.053,0.5,,,,
-1.05,0.38,,,,
-1.046,0.42,,,,
-1.043,0.5,,,,
-1.04,0.58,,,,
-1.037,0.46,,,,
-1.034,0.34,,,,
-1.03,0.34,,,,
-1.027,0.46,,,,
-1.024,0.58,,,,
-1.021,0.46,,,,
-1.018,0.38,,,,
-1.014,0.34,,,,
-1.011,0.42,,,,
-1.008,0.54,,,,
-1.005,0.58,,,,
-1.002,0.38,,,,
-0.9984,0.34,,,,
-0.9952,0.38,,,,
-0.992,0.58,,,,
-0.9888,0.58,,,,
-0.9856,0.46,,,,
-0.9824,0.38,,,,
-0.9792,0.42,,,,
-0.976,0.58,,,,
-0.9728,0.7,,,,
-0.9696,0.58,,,,
-0.9664,0.46,,,,
-0.9632,0.46,,,,
-0.96,0.58,,,,
-0.9568,0.7,,,,
-0.9536,0.62,,,,
-0.9504,0.5,,,,
-0.9472,0.5,,,,
-0.944,0.58,,,,
-0.9408,0.66,,,,
-0.9376,0.7,,,,
-0.9344,0.58,,,,
-0.9312,0.5,,,,
-0.928,0.54,,,,
-0.9248,0.62,,,,
-0.9216,0.66,,,,
-0.9184,0.58,,,,
-0.9152,0.46,,,,
-0.912,0.42,,,,
-0.9088,0.54,,,,
-0.9056,0.62,,,,
-0.9024,0.5,,,,
-0.8992,0.38,,,,
-0.896,0.34,,,,
-0.8928,0.38,,,,
-0.8896,0.46,,,,
-0.8864,0.42,,,,
-0.8832,0.26,,,,
-0.88,0.14,,,,
-0.8768,0.22,,,,
-0.8736,0.34,,,,
-0.8704,0.26,,,,
-0.8672,0.14,,,,
-0.864,0.02,,,,
-0.8608,0.06,,,,
-0.8576,0.14,,,,
-0.8544,0.18,,,,
-0.8512,0.06,,,,
-0.848,-0.14,,,,
-0.8448,-0.14,,,,
-0.8416,-0.02,,,,
-0.8384,0.02,,,,
-0.8352,-0.06,,,,
-0.832,-0.22,,,,
-0.8288,-0.26,,,,
-0.8256,-0.18,,,,
-0.8224,-0.06,,,,
-0.8192,-0.14,,,,
-0.816,-0.3,,,,
-0.8128,-0.42,,,,
-0.8096,-0.3,,,,
-0.8064,-0.18,,,,
-0.8032,-0.22,,,,
-0.8,-0.38,,,,
-0.7968,-0.5,,,,
-0.7936,-0.46,,,,
-0.7904,-0.34,,,,
-0.7872,-0.3,,,,
-0.784,-0.42,,,,
-0.7808,-0.54,,,,
-0.7776,-0.54,,,,
-0.7744,-0.46,,,,
-0.7712,-0.34,,,,
-0.768,-0.42,,,,
-0.7648,-0.58,,,,
-0.7616,-0.66,,,,
-0.7584,-0.5,,,,
-0.7552,-0.42,,,,
-0.752,-0.5,,,,
-0.7488,-0.66,,,,
-0.7456,-0.7,,,,
-0.7424,-0.62,,,,
-0.7392,-0.5,,,,
-0.736,-0.5,,,,
-0.7328,-0.58,,,,
-0.7296,-0.7,,,,
-0.7264,-0.66,,,,
-0.7232,-0.54,,,,
-0.72,-0.54,,,,
-0.7168,-0.58,,,,
-0.7136,-0.66,,,,
-0.7104,-0.66,,,,
-0.7072,-0.54,,,,
-0.704,-0.5,,,,
-0.7008,-0.5,,,,
-0.6976,-0.66,,,,
-0.6944,-0.62,,,,
-0.6912,-0.54,,,,
-0.688,-0.46,,,,
-0.6848,-0.5,,,,
-0.6816,-0.62,,,,
-0.6784,-0.62,,,,
-0.6752,-0.58,,,,
-0.672,-0.5,,,,
-0.6688,-0.5,,,,
-0.6656,-0.58,,,,
-0.6624,-0.62,,,,
-0.6592,-0.58,,,,
-0.656,-0.54,,,,
-0.6528,-0.54,,,,
-0.6496,-0.58,,,,
-0.6464,-0.66,,,,
-0.6432,-0.58,,,,
-0.64,-0.58,,,,
-0.6368,-0.54,,,,
-0.6336,-0.58,,,,
-0.6304,-0.62,,,,
-0.6272,-0.62,,,,
-0.624,-0.58,,,,
-0.6208,-0.58,,,,
-0.6176,-0.58,,,,
-0.6144,-0.62,,,,
-0.6112,-0.58,,,,
-0.608,-0.58,,,,
-0.6048,-0.58,,,,
-0.6016,-0.58,,,,
-0.5984,-0.58,,,,
-0.5952,-0.58,,,,
-0.592,-0.58,,,,
-0.5888,-0.62,,,,
-0.5856,-0.54,,,,
-0.5824,-0.58,,,,
-0.5792,-0.58,,,,
-0.576,-0.62,,,,
-0.5728,-0.58,,,,
-0.5696,-0.58,,,,
-0.5664,-0.62,,,,
-0.5632,-0.62,,,,
-0.56,-0.62,,,,
-0.5568,-0.66,,,,
-0.5536,-0.66,,,,
-0.5504,-0.66,,,,
-0.5472,-0.66,,,,
-0.544,-0.7,,,,
-0.5408,-0.7,,,,
-0.5376,-0.7,,,,
-0.5344,-0.7,,,,
-0.5312,-0.7,,,,
-0.528,-0.74,,,,
-0.5248,-0.74,,,,
-0.5216,-0.74,,,,
-0.5184,-0.74,,,,
-0.5152,-0.7,,,,
-0.512,-0.74,,,,
-0.5088,-0.78,,,,
-0.5056,-0.74,,,,
-0.5024,-0.82,,,,
-0.4992,-0.78,,,,
-0.496,-0.78,,,,
-0.4928,-0.78,,,,
-0.4896,-0.82,,,,
-0.4864,-0.82,,,,
-0.4832,-0.82,,,,
-0.48,-0.82,,,,
-0.4768,-0.82,,,,
-0.4736,-0.82,,,,
-0.4704,-0.86,,,,
-0.4672,-0.86,,,,
-0.464,-0.86,,,,
-0.4608,-0.86,,,,
-0.4576,-0.9,,,,
-0.4544,-0.9,,,,
-0.4512,-0.86,,,,
-0.448,-0.94,,,,
-0.4448,-0.9,,,,
-0.4416,-0.9,,,,
-0.4384,-0.86,,,,
-0.4352,-0.9,,,,
-0.432,-0.94,,,,
-0.4288,-0.94,,,,
-0.4256,-0.86,,,,
-0.4224,-0.94,,,,
-0.4192,-0.94,,,,
-0.416,-0.94,,,,
-0.4128,-0.94,,,,
-0.4096,-0.94,,,,
-0.4064,-0.9,,,,
-0.4032,-0.94,,,,
-0.4,-0.94,,,,
-0.3968,-0.98,,,,
-0.3936,-0.94,,,,
-0.3904,-1.02,,,,
-0.3872,-0.94,,,,
-0.384,-0.94,,,,
-0.3808,-0.98,,,,
-0.3776,-0.98,,,,
-0.3744,-0.98,,,,
-0.3712,-0.98,,,,
-0.368,-1.02,,,,
-0.3648,-0.98,,,,
-0.3616,-1.06,,,,
-0.3584,-1.02,,,,
-0.3552,-1.02,,,,
-0.352,-1.02,,,,
-0.3488,-1.02,,,,
-0.3456,-1.06,,,,
-0.3424,-1.06,,,,
-0.3392,-1.06,,,,
-0.336,-1.1,,,,
-0.3328,-1.06,,,,
-0.3296,-1.1,,,,
-0.3264,-1.1,,,,
-0.3232,-1.14,,,,
-0.32,-1.1,,,,
-0.3168,-1.1,,,,
-0.3136,-1.1,,,,
-0.3104,-1.14,,,,
-0.3072,-1.1,,,,
-0.304,-1.14,,,,
-0.3008,-1.1,,,,
-0.2976,-1.14,,,,
-0.2944,-1.14,,,,
-0.2912,-1.1,,,,
-0.288,-1.06,,,,
-0.2848,-1.02,,,,
-0.2816,-0.94,,,,
-0.2784,-0.9,,,,
-0.2752,-0.78,,,,
-0.272,-0.7,,,,
-0.2688,-0.58,,,,
-0.2656,-0.46,,,,
-0.2624,-0.3,,,,
-0.2592,-0.18,,,,
-0.256,-0.02,,,,
-0.2528,0.18,,,,
-0.2496,0.3,,,,
-0.2464,0.5,,,,
-0.2432,0.62,,,,
-0.24,0.82,,,,
-0.2368,0.98,,,,
-0.2336,1.14,,,,
-0.2304,1.3,,,,
-0.2272,1.42,,,,
-0.224,1.58,,,,
-0.2208,1.7,,,,
-0.2176,1.82,,,,
-0.2144,1.94,,,,
-0.2112,2.06,,,,
-0.208,2.18,,,,
-0.2048,2.26,,,,
-0.2016,2.34,,,,
-0.1984,2.42,,,,
-0.1952,2.42,,,,
-0.192,2.54,,,,
-0.1888,2.54,,,,
-0.1856,2.58,,,,
-0.1824,2.58,,,,
-0.1792,2.54,,,,
-0.176,2.54,,,,
-0.1728,2.5,,,,
-0.1696,2.46,,,,
-0.1664,2.46,,,,
-0.1632,2.42,,,,
-0.16,2.3,,,,
-0.1568,2.26,,,,
-0.1536,2.22,,,,
-0.1504,2.18,,,,
-0.1472,2.06,,,,
-0.144,1.98,,,,
-0.1408,1.94,,,,
-0.1376,1.86,,,,
-0.1344,1.78,,,,
-0.1312,1.7,,,,
-0.128,1.66,,,,
-0.1248,1.54,,,,
-0.1216,1.46,,,,
-0.1184,1.42,,,,
-0.1152,1.34,,,,
-0.112,1.26,,,,
-0.1088,1.18,,,,
-0.1056,1.1,,,,
-0.1024,1.06,,,,
-0.0992,1.02,,,,
-0.096,0.94,,,,
-0.0928,0.9,,,,
-0.0896,0.82,,,,
-0.0864,0.78,,,,
-0.0832,0.74,,,,
-0.08,0.66,,,,
-0.0768,0.62,,,,
-0.0736,0.58,,,,
-0.0704,0.58,,,,
-0.0672,0.54,,,,
-0.064,0.54,,,,
-0.0608,0.54,,,,
-0.0576,0.5,,,,
-0.0544,0.54,,,,
-0.0512,0.46,,,,
-0.048,0.46,,,,
-0.0448,0.42,,,,
-0.0416,0.46,,,,
-0.0384,0.46,,,,
-0.0352,0.38,,,,
-0.032,0.42,,,,
-0.0288,0.38,,,,
-0.0256,0.34,,,,
-0.0224,0.34,,,,
-0.0192,0.3,,,,
-0.016,0.34,,,,
-0.0128,0.3,,,,
-0.0096,0.3,,,,
-0.0064,0.26,,,,
-0.0032,0.26,,,,
0,0.26,,,,
0.0032,0.26,,,,
0.0064,0.26,,,,
0.0096,0.3,,,,
0.0128,0.3,,,,
0.016,0.3,,,,
0.0192,0.3,,,,
0.0224,0.34,,,,
0.0256,0.3,,,,
0.0288,0.3,,,,
0.032,0.3,,,,
0.0352,0.38,,,,
0.0384,0.38,,,,
0.0416,0.38,,,,
0.0448,0.38,,,,
0.048,0.46,,,,
0.0512,0.42,,,,
0.0544,0.42,,,,
0.0576,0.46,,,,
0.0608,0.46,,,,
0.064,0.5,,,,
0.0672,0.54,,,,
0.0704,0.54,,,,
0.0736,0.54,,,,
0.0768,0.58,,,,
0.08,0.58,,,,
0.0832,0.58,,,,
0.0864,0.58,,,,
0.0896,0.62,,,,
0.0928,0.58,,,,
0.096,0.62,,,,
0.0992,0.58,,,,
0.1024,0.58,,,,
0.1056,0.58,,,,
0.1088,0.54,,,,
0.112,0.58,,,,
0.1152,0.58,,,,
0.1184,0.54,,,,
0.1216,0.54,,,,
0.1248,0.5,,,,
0.128,0.54,,,,
0.1312,0.5,,,,
0.1344,0.46,,,,
0.1376,0.46,,,,
0.1408,0.42,,,,
0.144,0.38,,,,
0.1472,0.38,,,,
0.1504,0.38,,,,
0.1536,0.3,,,,
0.1568,0.3,,,,
0.16,0.3,,,,
0.1632,0.26,,,,
0.1664,0.22,,,,
0.1696,0.18,,,,
0.1728,0.14,,,,
0.176,0.1,,,,
0.1792,0.1,,,,
0.1824,0.06,,,,
0.1856,0.02,,,,
0.1888,-0.02,,,,
0.192,-0.02,,,,
0.1952,-0.1,,,,
0.1984,-0.14,,,,
0.2016,-0.1,,,,
0.2048,-0.18,,,,
0.208,-0.18,,,,
0.2112,-0.22,,,,
0.2144,-0.22,,,,
0.2176,-0.26,,,,
0.2208,-0.3,,,,
0.224,-0.3,,,,
0.2272,-0.34,,,,
0.2304,-0.34,,,,
0.2336,-0.42,,,,
0.2368,-0.42,,,,
0.24,-0.46,,,,
0.2432,-0.46,,,,
0.2464,-0.46,,,,
0.2496,-0.46,,,,
0.2528,-0.54,,,,
0.256,-0.54,,,,
0.2592,-0.5,,,,
0.2624,-0.54,,,,
0.2656,-0.54,,,,
0.2688,-0.54,,,,
0.272,-0.58,,,,
0.2752,-0.62,,,,
0.2784,-0.58,,,,
0.2816,-0.58,,,,
0.2848,-0.58,,,,
0.288,-0.58,,,,
0.2912,-0.58,,,,
0.2944,-0.58,,,,
0.2976,-0.54,,,,
0.3008,-0.54,,,,
0.304,-0.58,,,,
0.3072,-0.62,,,,
0.3104,-0.58,,,,
0.3136,-0.62,,,,
0.3168,-0.62,,,,
0.32,-0.58,,,,
0.3232,-0.58,,,,
0.3264,-0.58,,,,
0.3296,-0.62,,,,
0.3328,-0.58,,,,
0.336,-0.58,,,,
0.3392,-0.62,,,,
0.3424,-0.58,,,,
0.3456,-0.58,,,,
0.3488,-0.58,,,,
0.352,-0.62,,,,
0.3552,-0.62,,,,
0.3584,-0.58,,,,
0.3616,-0.58,,,,
0.3648,-0.62,,,,
0.368,-0.58,,,,
0.3712,-0.58,,,,
0.3744,-0.58,,,,
0.3776,-0.58,,,,
0.3808,-0.58,,,,
0.384,-0.62,,,,
0.3872,-0.58,,,,
0.3904,-0.54,,,,
0.3936,-0.58,,,,
0.3968,-0.54,,,,
0.4,-0.54,,,,
0.4032,-0.58,,,,
0.4064,-0.58,,,,
0.4096,-0.58,,,,
0.4128,-0.58,,,,
0.416,-0.58,,,,
0.4192,-0.58,,,,
0.4224,-0.58,,,,
0.4256,-0.58,,,,
0.4288,-0.54,,,,
0.432,-0.58,,,,
0.4352,-0.62,,,,
0.4384,-0.58,,,,
0.4416,-0.58,,,,
0.4448,-0.58,,,,
0.448,-0.58,,,,
0.4512,-0.58,,,,
0.4544,-0.62,,,,
0.4576,-0.62,,,,
0.4608,-0.62,,,,
0.464,-0.58,,,,
0.4672,-0.58,,,,
0.4704,-0.62,,,,
0.4736,-0.62,,,,
0.4768,-0.62,,,,
0.48,-0.62,,,,
0.4832,-0.66,,,,
0.4864,-0.66,,,,
0.4896,-0.66,,,,
0.4928,-0.66,,,,
0.496,-0.66,,,,
0.4992,-0.66,,,,
0.5024,-0.66,,,,
0.5056,-0.66,,,,
0.5088,-0.66,,,,
0.512,-0.74,,,,
0.5152,-0.7,,,,
0.5184,-0.7,,,,
0.5216,-0.74,,,,
0.5248,-0.74,,,,
0.528,-0.78,,,,
0.5312,-0.78,,,,
0.5344,-0.78,,,,
0.5376,-0.78,,,,
0.5408,-0.78,,,,
0.544,-0.78,,,,
0.5472,-0.82,,,,
0.5504,-0.82,,,,
0.5536,-0.86,,,,
0.5568,-0.82,,,,
0.56,-0.82,,,,
0.5632,-0.82,,,,
0.5664,-0.86,,,,
0.5696,-0.86,,,,
0.5728,-0.86,,,,
0.576,-0.86,,,,
0.5792,-0.86,,,,
0.5824,-0.9,,,,
0.5856,-0.9,,,,
0.5888,-0.9,,,,
0.592,-0.9,,,,
0.5952,-0.9,,,,
0.5984,-0.86,,,,
0.6016,-0.9,,,,
0.6048,-0.9,,,,
0.608,-0.9,,,,
0.6112,-0.9,,,,
0.6144,-0.9,,,,
0.6176,-0.94,,,,
0.6208,-0.9,,,,
0.624,-0.94,,,,
0.6272,-0.9,,,,
